<?xml version="1.0" encoding="utf-8"?>
<!-- Generator: Adobe Illustrator 16.0.4, SVG Export Plug-In . SVG Version: 6.00 Build 0)  -->
<!DOCTYPE svg PUBLIC "-//W3C//DTD SVG 1.1//EN" "http://www.w3.org/Graphics/SVG/1.1/DTD/svg11.dtd">
<svg version="1.1" id="Layer_1" xmlns="http://www.w3.org/2000/svg" xmlns:xlink="http://www.w3.org/1999/xlink" x="0px" y="0px"
	 width="305.086px" height="64.5px" viewBox="0 0 305.086 64.5" enable-background="new 0 0 305.086 64.5" xml:space="preserve">
<g>
	<path fill="#00B1E1" d="M151.106,44.064h-5.318V24.076h11.812v4.334h-6.494v3.814h5.988v4.334h-5.988V44.064z"/>
	<path fill="#00B1E1" d="M160.882,44.064V24.076h5.428v19.989H160.882z"/>
	<path fill="#00B1E1" d="M179.448,44.064h-5.4V28.492h-4.881v-4.417h15.148v4.417h-4.867V44.064z"/>
	<path fill="#00B1E1" d="M206.204,44.064h-7.082l-7.301-14.082h-0.123c0.173,2.215,0.26,3.905,0.26,5.072v9.01h-4.785V24.076h7.055
		l7.273,13.891h0.082c-0.128-2.015-0.191-3.633-0.191-4.854v-9.038h4.812V44.064z"/>
	<path fill="#00B1E1" d="M222.392,44.064h-11.867V24.076h11.867v4.334h-6.467v3.145h5.988v4.334h-5.988v3.773h6.467V44.064z"/>
	<path fill="#00B1E1" d="M238.962,37.994c0,1.239-0.314,2.34-0.943,3.301c-0.629,0.963-1.536,1.709-2.721,2.242
		c-1.185,0.533-2.575,0.801-4.17,0.801c-1.331,0-2.447-0.094-3.35-0.281c-0.902-0.186-1.841-0.512-2.816-0.977v-4.812
		c1.03,0.528,2.101,0.941,3.213,1.236c1.112,0.297,2.133,0.445,3.062,0.445c0.802,0,1.39-0.139,1.764-0.418
		c0.374-0.277,0.561-0.635,0.561-1.072c0-0.273-0.075-0.514-0.226-0.719s-0.392-0.412-0.725-0.621
		c-0.333-0.21-1.219-0.639-2.659-1.285c-1.304-0.593-2.281-1.167-2.933-1.723c-0.652-0.557-1.135-1.194-1.449-1.914
		c-0.314-0.721-0.472-1.572-0.472-2.557c0-1.842,0.67-3.277,2.01-4.307s3.181-1.545,5.523-1.545c2.069,0,4.179,0.479,6.33,1.436
		l-1.654,4.17c-1.869-0.857-3.482-1.285-4.84-1.285c-0.702,0-1.212,0.123-1.531,0.369c-0.319,0.246-0.479,0.551-0.479,0.916
		c0,0.392,0.203,0.742,0.608,1.053c0.405,0.31,1.506,0.875,3.302,1.695c1.723,0.774,2.919,1.605,3.589,2.494
		S238.962,36.645,238.962,37.994z"/>
	<path fill="#00B1E1" d="M255.122,37.994c0,1.239-0.314,2.34-0.943,3.301c-0.629,0.963-1.536,1.709-2.721,2.242
		c-1.185,0.533-2.575,0.801-4.17,0.801c-1.331,0-2.447-0.094-3.35-0.281c-0.902-0.186-1.841-0.512-2.816-0.977v-4.812
		c1.03,0.528,2.101,0.941,3.213,1.236c1.112,0.297,2.133,0.445,3.062,0.445c0.802,0,1.39-0.139,1.764-0.418
		c0.374-0.277,0.561-0.635,0.561-1.072c0-0.273-0.075-0.514-0.226-0.719s-0.392-0.412-0.725-0.621
		c-0.333-0.21-1.219-0.639-2.659-1.285c-1.304-0.593-2.281-1.167-2.933-1.723c-0.652-0.557-1.135-1.194-1.449-1.914
		c-0.314-0.721-0.472-1.572-0.472-2.557c0-1.842,0.67-3.277,2.01-4.307s3.181-1.545,5.523-1.545c2.069,0,4.179,0.479,6.33,1.436
		l-1.654,4.17c-1.869-0.857-3.482-1.285-4.84-1.285c-0.702,0-1.212,0.123-1.531,0.369c-0.319,0.246-0.479,0.551-0.479,0.916
		c0,0.392,0.203,0.742,0.608,1.053c0.405,0.31,1.506,0.875,3.302,1.695c1.723,0.774,2.919,1.605,3.589,2.494
		S255.122,36.645,255.122,37.994z"/>
</g>
<g>
	<path d="M436.863,34.043c0,3.363-0.825,5.92-2.475,7.67c-1.65,1.75-4.065,2.625-7.246,2.625c-3.136,0-5.539-0.881-7.212-2.639
		c-1.673-1.76-2.509-4.32-2.509-7.684c0-3.327,0.832-5.867,2.495-7.623c1.663-1.754,4.081-2.631,7.253-2.631
		c3.181,0,5.592,0.871,7.232,2.612C436.043,28.113,436.863,30.67,436.863,34.043z M423.109,34.043c0,3.864,1.344,5.797,4.033,5.797
		c1.367,0,2.381-0.469,3.042-1.408s0.991-2.402,0.991-4.389c0-1.996-0.335-3.471-1.005-4.424c-0.67-0.951-1.671-1.428-3.001-1.428
		C424.463,28.191,423.109,30.142,423.109,34.043z"/>
	<path d="M457.467,24.076v12.032c0,2.615-0.74,4.641-2.222,6.076s-3.616,2.154-6.405,2.154c-2.726,0-4.819-0.697-6.282-2.092
		s-2.194-3.4-2.194-6.016V24.076h5.428v11.731c0,1.412,0.264,2.438,0.793,3.076c0.528,0.639,1.308,0.957,2.338,0.957
		c1.103,0,1.902-0.316,2.399-0.951c0.497-0.633,0.745-1.67,0.745-3.109V24.076H457.467z"/>
	<path d="M470.482,44.064h-5.4V28.492h-4.881v-4.417h15.148v4.417h-4.867V44.064z"/>
	<path d="M495.174,33.646c0,3.336-0.918,5.906-2.755,7.711s-4.419,2.707-7.745,2.707h-6.467V24.076h6.918
		c3.208,0,5.686,0.82,7.431,2.461C494.301,28.178,495.174,30.547,495.174,33.646z M489.568,33.838c0-1.832-0.362-3.19-1.087-4.074
		c-0.725-0.885-1.825-1.326-3.302-1.326h-1.572v11.197h1.203c1.641,0,2.844-0.477,3.609-1.43
		C489.186,37.254,489.568,35.797,489.568,33.838z"/>
	<path d="M517.459,34.043c0,3.363-0.825,5.92-2.475,7.67c-1.65,1.75-4.065,2.625-7.246,2.625c-3.136,0-5.539-0.881-7.212-2.639
		c-1.673-1.76-2.509-4.32-2.509-7.684c0-3.327,0.832-5.867,2.495-7.623c1.663-1.754,4.081-2.631,7.253-2.631
		c3.181,0,5.592,0.871,7.232,2.612C516.639,28.113,517.459,30.67,517.459,34.043z M503.705,34.043c0,3.864,1.344,5.797,4.033,5.797
		c1.367,0,2.381-0.469,3.042-1.408s0.991-2.402,0.991-4.389c0-1.996-0.335-3.471-1.005-4.424c-0.67-0.951-1.671-1.428-3.001-1.428
		C505.059,28.191,503.705,30.142,503.705,34.043z"/>
	<path d="M539.771,34.043c0,3.363-0.825,5.92-2.475,7.67c-1.65,1.75-4.065,2.625-7.246,2.625c-3.136,0-5.539-0.881-7.212-2.639
		c-1.673-1.76-2.509-4.32-2.509-7.684c0-3.327,0.832-5.867,2.495-7.623c1.663-1.754,4.081-2.631,7.253-2.631
		c3.181,0,5.592,0.871,7.232,2.612C538.951,28.113,539.771,30.67,539.771,34.043z M526.018,34.043c0,3.864,1.344,5.797,4.033,5.797
		c1.367,0,2.381-0.469,3.042-1.408s0.991-2.402,0.991-4.389c0-1.996-0.335-3.471-1.005-4.424c-0.67-0.951-1.671-1.428-3.001-1.428
		C527.371,28.191,526.018,30.142,526.018,34.043z"/>
	<path d="M548.781,36.791v7.273h-5.4V24.076h6.549c5.432,0,8.148,1.969,8.148,5.907c0,2.314-1.131,4.105-3.391,5.373l5.824,8.709
		h-6.125l-4.238-7.273H548.781z M548.781,32.73h1.012c1.887,0,2.83-0.834,2.83-2.502c0-1.377-0.926-2.064-2.775-2.064h-1.066V32.73z
		"/>
	<path d="M575.4,37.994c0,1.239-0.314,2.34-0.943,3.301c-0.629,0.963-1.536,1.709-2.721,2.242c-1.186,0.533-2.575,0.801-4.17,0.801
		c-1.331,0-2.447-0.094-3.35-0.281c-0.902-0.186-1.842-0.512-2.816-0.977v-4.812c1.029,0.528,2.101,0.941,3.213,1.236
		c1.111,0.297,2.133,0.445,3.062,0.445c0.802,0,1.39-0.139,1.764-0.418c0.373-0.277,0.561-0.635,0.561-1.072
		c0-0.273-0.075-0.514-0.226-0.719s-0.392-0.412-0.725-0.621c-0.333-0.21-1.22-0.639-2.659-1.285
		c-1.304-0.593-2.281-1.167-2.933-1.723c-0.651-0.557-1.135-1.194-1.449-1.914c-0.314-0.721-0.472-1.572-0.472-2.557
		c0-1.842,0.67-3.277,2.01-4.307s3.181-1.545,5.523-1.545c2.068,0,4.179,0.479,6.33,1.436l-1.654,4.17
		c-1.869-0.857-3.482-1.285-4.84-1.285c-0.702,0-1.213,0.123-1.531,0.369c-0.319,0.246-0.479,0.551-0.479,0.916
		c0,0.392,0.203,0.742,0.608,1.053c0.405,0.31,1.506,0.875,3.302,1.695c1.723,0.774,2.919,1.605,3.589,2.494
		S575.4,36.645,575.4,37.994z"/>
</g>
<g>
	<path fill="#FF8F12" d="M727.16,24.076h6.973c2.716,0,4.732,0.403,6.05,1.21c1.317,0.806,1.976,2.062,1.976,3.767
		c0,1.121-0.287,2.078-0.861,2.871s-1.331,1.303-2.27,1.531v0.137c1.239,0.328,2.137,0.875,2.693,1.641
		c0.556,0.766,0.834,1.759,0.834,2.98c0,1.814-0.682,3.242-2.044,4.285c-1.362,1.045-3.22,1.566-5.571,1.566h-7.779V24.076z
		 M732.561,31.746h1.627c0.774,0,1.374-0.16,1.798-0.479c0.424-0.319,0.636-0.793,0.636-1.422c0-1.121-0.848-1.682-2.543-1.682
		h-1.518V31.746z M732.561,35.697v4.197h1.9c1.686,0,2.529-0.711,2.529-2.133c0-0.666-0.226-1.176-0.677-1.531
		s-1.105-0.533-1.962-0.533H732.561z"/>
	<path fill="#FF8F12" d="M758.291,44.064l-0.984-3.746h-6.494l-1.012,3.746h-5.934l6.521-20.071h7.205l6.604,20.071H758.291z
		 M756.186,35.889l-0.861-3.281c-0.201-0.729-0.444-1.673-0.731-2.83c-0.287-1.158-0.477-1.987-0.567-2.488
		c-0.082,0.465-0.244,1.23-0.485,2.297s-0.777,3.167-1.606,6.303H756.186z"/>
	<path fill="#FF8F12" d="M775.258,28.219c-1.285,0-2.288,0.525-3.008,1.578c-0.721,1.053-1.08,2.505-1.08,4.355
		c0,3.846,1.463,5.77,4.389,5.77c0.884,0,1.74-0.123,2.57-0.369c0.829-0.246,1.663-0.543,2.502-0.889v4.566
		c-1.668,0.738-3.555,1.107-5.66,1.107c-3.018,0-5.33-0.875-6.938-2.625s-2.413-4.279-2.413-7.588c0-2.069,0.39-3.888,1.169-5.455
		c0.779-1.568,1.9-2.773,3.363-3.617c1.463-0.843,3.183-1.265,5.161-1.265c2.16,0,4.225,0.47,6.193,1.408l-1.654,4.252
		c-0.738-0.347-1.477-0.639-2.215-0.875C776.898,28.337,776.105,28.219,775.258,28.219z"/>
	<path fill="#FF8F12" d="M801.604,44.064h-6.098l-3.951-7.643l-1.6,0.957v6.686h-5.428V24.076h5.428v8.682
		c0.273-0.538,0.824-1.391,1.654-2.557l4.197-6.125h5.906l-6.303,8.956L801.604,44.064z"/>
	<path fill="#FF8F12" d="M810.9,31.486l3.445-7.411h5.852l-6.576,12.182v7.807h-5.441v-7.643l-6.576-12.346h5.879L810.9,31.486z"/>
	<path fill="#FF8F12" d="M834.621,44.064l-0.984-3.746h-6.494l-1.012,3.746h-5.934l6.521-20.071h7.205l6.604,20.071H834.621z
		 M832.516,35.889l-0.861-3.281c-0.201-0.729-0.444-1.673-0.731-2.83c-0.287-1.158-0.477-1.987-0.567-2.488
		c-0.082,0.465-0.244,1.23-0.485,2.297s-0.777,3.167-1.606,6.303H832.516z"/>
	<path fill="#FF8F12" d="M848.088,36.791v7.273h-5.4V24.076h6.549c5.432,0,8.148,1.969,8.148,5.907c0,2.314-1.131,4.105-3.391,5.373
		l5.824,8.709h-6.125l-4.238-7.273H848.088z M848.088,32.73h1.012c1.887,0,2.83-0.834,2.83-2.502c0-1.377-0.926-2.064-2.775-2.064
		h-1.066V32.73z"/>
	<path fill="#FF8F12" d="M878.604,33.646c0,3.336-0.918,5.906-2.755,7.711s-4.419,2.707-7.745,2.707h-6.467V24.076h6.918
		c3.208,0,5.686,0.82,7.431,2.461C877.73,28.178,878.604,30.547,878.604,33.646z M872.998,33.838c0-1.832-0.362-3.19-1.087-4.074
		c-0.725-0.885-1.825-1.326-3.302-1.326h-1.572v11.197h1.203c1.641,0,2.844-0.477,3.609-1.43
		C872.615,37.254,872.998,35.797,872.998,33.838z"/>
</g>
<line fill="none" stroke="#7D7D7D" stroke-miterlimit="10" x1="610.086" y1="58" x2="610.086" y2="10"/>
<path fill="#00B1E1" d="M97.94,3.164c-15.926,0-28.837,12.911-28.837,28.838c0,2.754,0.394,5.414,1.115,7.937l25.165-12.493
	l3.31,6.668L73.178,46.779c5.035,8.419,14.239,14.059,24.762,14.059c15.926,0,28.837-12.912,28.837-28.836
	C126.777,16.075,113.866,3.164,97.94,3.164z M109.142,39.764l-3.2,1.588c-0.883,0.438-1.956,0.077-2.394-0.805L93.421,20.146
	c-0.439-0.884-0.078-1.957,0.805-2.395l3.2-1.588c0.884-0.439,1.956-0.078,2.395,0.807l10.127,20.4
	C110.387,38.252,110.025,39.324,109.142,39.764z M114.673,32.323l-3.2,1.587c-0.884,0.439-1.842,0.309-2.141-0.294l-6.894-13.888
	c-0.298-0.602,0.175-1.446,1.059-1.886l3.2-1.587c0.883-0.439,1.842-0.306,2.141,0.296l6.894,13.888
	C116.03,31.042,115.556,31.884,114.673,32.323z M118.07,26.152l-1.767,0.876c-0.488,0.242-1.017,0.169-1.181-0.163l-3.807-7.668
	c-0.165-0.332,0.097-0.796,0.584-1.038l1.767-0.878c0.488-0.241,1.017-0.169,1.182,0.163l3.806,7.668
	C118.819,25.443,118.557,25.91,118.07,26.152z"/>
<g>
	<path fill="none" d="M339.758,42.593c-0.012-0.005-0.023-0.008-0.035-0.012l0.013,0.077l-0.431,0.158l-0.034,1.609l0.808-1.068
		L339.758,42.593z"/>
	<path fill="none" d="M340.407,42.561l0.42,0.072c-0.034-0.09-0.072-0.179-0.106-0.269
		C340.623,42.446,340.519,42.515,340.407,42.561z"/>
	<path fill="none" d="M339.311,42.518l-0.003,0.2l0.391-0.145c-0.058-0.021-0.114-0.049-0.169-0.08L339.311,42.518z"/>
	<path fill="none" d="M339.312,42.422l0.096-0.01c-0.031-0.024-0.063-0.051-0.094-0.078L339.312,42.422z"/>
	<path fill="none" d="M340.461,42.854l-0.289-0.122l0.021-0.092l0.324,0.139l0.042-0.055l0.046,0.069l-0.013,0.017l0.366,0.156
		c-0.03-0.077-0.061-0.153-0.091-0.23l-0.666-0.113c-0.046,0.007-0.09,0.01-0.137,0.013l0.249,0.413L340.461,42.854z"/>
	<path fill="none" d="M341.084,43.284c-0.027-0.065-0.052-0.132-0.078-0.198l-0.317-0.136l-0.204,0.38l0.536,0.889L341.084,43.284z"
		/>
	<polygon fill="none" points="340.62,42.922 340.534,42.885 340.355,43.119 340.439,43.255 	"/>
	<path fill="none" d="M339.602,38.745l-0.049,0.239c0.048-0.029,0.096-0.052,0.144-0.072c-0.008-0.036-0.017-0.073-0.024-0.109
		L339.602,38.745z"/>
	<path fill="none" d="M338.718,40.866l-0.118,0.142l0.123,0.13l0.017-0.026C338.729,41.03,338.722,40.948,338.718,40.866z"/>
	<path fill="none" d="M338.885,41.686c-0.046-0.116-0.082-0.241-0.111-0.373l-0.042-0.043l-0.128,0.218L338.885,41.686z"/>
	<polygon fill="none" points="338.481,46.9 339.179,45.604 339.198,44.648 338.709,45.295 	"/>
	<polygon fill="none" points="339.236,42.842 339.047,42.911 338.731,45.136 339.201,44.516 	"/>
	<path fill="none" d="M339.473,39.035l0.069-0.34l-0.785-0.65l0.254,1.514l0.003,0.001C339.138,39.34,339.295,39.161,339.473,39.035
		z"/>
	<path fill="none" d="M338.956,39.658h-0.2l0.088,0.29c0.033-0.099,0.07-0.191,0.114-0.279L338.956,39.658z"/>
	<path fill="none" d="M339.045,42.454l0.053-0.373c-0.051-0.072-0.098-0.15-0.14-0.232l-0.4-0.283l-0.603,1.016L339.045,42.454z"/>
	<polygon fill="none" points="338.543,41.443 338.678,41.213 338.546,41.074 338.351,41.31 	"/>
	<path fill="none" d="M340.265,43.113l-0.29-0.479c-0.008-0.002-0.018,0-0.027-0.002c-0.034-0.003-0.068-0.01-0.102-0.018
		l0.283,0.678L340.265,43.113z"/>
	<polygon fill="none" points="340.397,43.334 340.308,43.185 340.164,43.375 340.256,43.597 	"/>
	<polygon fill="none" points="340.113,43.44 339.268,44.559 339.248,45.473 340.213,43.678 	"/>
	<path fill="none" d="M339.249,42.267c-0.032-0.032-0.062-0.07-0.093-0.107l-0.042,0.287l0.132-0.017L339.249,42.267z"/>
	<polygon fill="none" points="339.243,42.525 339.1,42.542 339.062,42.807 339.239,42.742 	"/>
	<path fill="none" d="M341.08,44.317l0.417,0.691l-0.047-0.873c-0.104-0.234-0.21-0.469-0.31-0.707L341.08,44.317z"/>
	<polygon fill="none" points="339.03,42.551 337.895,42.684 337.477,43.391 338.991,42.834 	"/>
	<polygon fill="none" points="341.506,45.172 341.071,44.451 341.007,45.39 341.591,46.783 	"/>
	<polygon fill="none" points="341.011,44.35 340.442,43.408 340.293,43.685 340.949,45.251 	"/>
	<polygon fill="none" points="337.862,42.592 338.496,41.521 338.293,41.379 337.227,42.667 	"/>
	<polygon fill="none" points="337.586,35.812 338.052,37.346 338.65,37.843 338.491,36.895 	"/>
	<polygon fill="none" points="336.257,43.838 337.366,43.43 337.802,42.694 337.139,42.772 	"/>
	<polygon fill="none" points="337.832,40.203 338.776,39.977 338.68,39.656 337.306,39.652 	"/>
	<path fill="none" d="M338.581,37.002l0.152,0.909l0.828,0.685l0.029-0.143c-0.023-0.11-0.05-0.22-0.072-0.331L338.581,37.002z"/>
	<polygon fill="none" points="338.939,39.56 338.674,37.976 338.099,37.5 338.726,39.559 	"/>
	<path fill="none" d="M339.621,38.646l0.018,0.015c-0.004-0.016-0.008-0.031-0.011-0.047L339.621,38.646z"/>
	<polygon fill="none" points="338.491,41.016 337.812,40.307 337.155,40.464 338.286,41.263 	"/>
	<polygon fill="none" points="336,39.648 337.05,40.391 337.735,40.227 337.188,39.652 	"/>
	<path fill="none" d="M338.545,40.95l0.172-0.207c0-0.044,0-0.089,0.003-0.135c0.01-0.188,0.041-0.367,0.086-0.535v-0.002
		l-0.896,0.212L338.545,40.95z"/>
	<path fill="none" d="M338.977,42.937l-1.574,0.578l-3.051,5.157c0.024,0.034,0.049,0.072,0.074,0.107l-0.057,0.078
		c0.005,0.007,0.01,0.013,0.015,0.021l0.054-0.08c0.093,0.13,0.189,0.257,0.288,0.383l-0.055,0.081
		c0.007,0.007,0.012,0.014,0.017,0.021l0.051-0.085c0.099,0.123,0.198,0.244,0.303,0.361l-0.052,0.085
		c0.005,0.006,0.012,0.012,0.018,0.02l0.047-0.089c0.057,0.064,0.116,0.125,0.175,0.187l3.419-4.514L338.977,42.937z"/>
	<path fill="none" d="M338.625,45.405l-3.343,4.414c0.029,0.031,0.058,0.063,0.086,0.094l-0.046,0.089
		c0.005,0.006,0.011,0.012,0.018,0.019l0.043-0.093c0.107,0.11,0.217,0.213,0.326,0.314l-0.043,0.091
		c0.006,0.007,0.013,0.013,0.02,0.018l0.039-0.093c0.111,0.099,0.225,0.195,0.339,0.287l-0.041,0.096
		c0.007,0.005,0.013,0.011,0.019,0.016l0.038-0.099c0.101,0.082,0.204,0.159,0.31,0.233l1.999-3.719L338.625,45.405z"/>
	<path fill="none" d="M339.489,37.958c-0.354-1.804-0.544-3.667-0.544-5.574c0-0.247,0.013-0.491,0.019-0.737l-0.489-1.911
		c-0.015,0.005-0.029,0.008-0.043,0.012l-0.015-0.109c-0.008,0.003-0.015,0.006-0.021,0.008l0.018,0.107
		c-0.129,0.042-0.259,0.089-0.388,0.139l-0.017-0.107c-0.007,0.003-0.015,0.005-0.021,0.009l0.021,0.105
		c-0.128,0.05-0.255,0.106-0.382,0.167l-0.021-0.105c-0.008,0.003-0.015,0.006-0.021,0.01l0.026,0.104
		c-0.061,0.027-0.119,0.061-0.178,0.091l1.12,6.676L339.489,37.958z"/>
	<polygon fill="none" points="336.41,50.934 336.435,50.86 336.399,50.927 	"/>
	<path fill="none" d="M340.997,45.55l-0.439,6.405c0.102-0.011,0.202-0.021,0.302-0.037l0.006,0.11
		c0.007-0.003,0.015-0.003,0.023-0.004l-0.011-0.11c0.132-0.022,0.264-0.049,0.394-0.078l0.011,0.108
		c0.007-0.003,0.014-0.005,0.022-0.007l-0.016-0.108c0.132-0.03,0.263-0.068,0.392-0.107l0.014,0.107
		c0.008-0.003,0.015-0.005,0.022-0.008l-0.018-0.105c0.051-0.018,0.101-0.038,0.151-0.055l-0.249-4.664L340.997,45.55z"/>
	<path fill="none" d="M338.465,36.732l-1.098-6.532c-0.043,0.022-0.089,0.044-0.132,0.067l-0.026-0.104
		c-0.007,0.004-0.013,0.009-0.021,0.014l0.03,0.1c-0.124,0.07-0.247,0.144-0.368,0.222l-0.028-0.1
		c-0.007,0.004-0.015,0.009-0.021,0.013l0.032,0.098c-0.121,0.08-0.24,0.163-0.358,0.25l-0.033-0.099
		c-0.007,0.004-0.014,0.008-0.021,0.014l0.038,0.097c-0.111,0.082-0.221,0.17-0.329,0.26l1.392,4.576L338.465,36.732z"/>
	<path fill="none" d="M339.083,29.585c-0.081,0.016-0.162,0.029-0.243,0.049l-0.01-0.11c-0.008,0.002-0.016,0.004-0.022,0.006
		l0.015,0.108c-0.095,0.023-0.188,0.052-0.281,0.078l0.43,1.678C338.991,30.786,339.025,30.183,339.083,29.585z"/>
	<path fill="none" d="M336.448,50.835c0.116,0.081,0.234,0.16,0.355,0.234l-0.034,0.1c0.007,0.004,0.014,0.008,0.02,0.012
		l0.029-0.102c0.121,0.074,0.244,0.144,0.368,0.21l-0.03,0.102c0.008,0.003,0.014,0.008,0.021,0.01l0.026-0.103
		c0.124,0.064,0.248,0.126,0.374,0.182l-0.025,0.103c0.008,0.004,0.015,0.006,0.021,0.009l0.022-0.104
		c0.052,0.021,0.104,0.043,0.157,0.062l0.606-4.266L336.448,50.835z"/>
	<path fill="none" d="M338.45,47.111l-0.636,4.465c0.055,0.021,0.107,0.044,0.161,0.064l-0.022,0.104
		c0.008,0.004,0.015,0.006,0.022,0.01l0.019-0.107c0.127,0.045,0.255,0.086,0.387,0.125l-0.02,0.108
		c0.008,0.001,0.015,0.003,0.021,0.006l0.015-0.11c0.129,0.036,0.26,0.067,0.391,0.096l-0.015,0.108
		c0.008,0.002,0.015,0.004,0.022,0.004l0.011-0.108c0.076,0.016,0.157,0.028,0.236,0.04l0.131-6.149L338.45,47.111z"/>
	<path fill="none" d="M340.938,45.412l-0.689-1.646l-1.005,1.868l-0.133,6.292c0.028,0.003,0.059,0.011,0.089,0.015l-0.011,0.109
		c0.007,0,0.016,0.002,0.022,0.003l0.006-0.109c0.065,0.008,0.132,0.016,0.198,0.023c0.066,0.005,0.132,0.009,0.198,0.014
		l-0.006,0.109c0.007,0.001,0.015,0.002,0.022,0.002l0.001-0.111c0.134,0.009,0.267,0.011,0.397,0.009l-0.002,0.11
		c0.008,0,0.015,0,0.021-0.001l-0.001-0.11c0.134-0.002,0.266-0.008,0.396-0.02l0.002,0.11c0.008,0,0.016-0.002,0.022-0.002
		l-0.007-0.111c0.01,0,0.02-0.002,0.029-0.003L340.938,45.412z"/>
	<path fill="none" d="M332.178,39.541l3.526,0.009l-3.174-2.239c-0.005,0.019-0.012,0.04-0.017,0.061l-0.074-0.036
		c-0.002,0.012-0.004,0.021-0.007,0.031l0.075,0.03c-0.041,0.179-0.078,0.36-0.113,0.543l-0.074-0.031
		c-0.002,0.011-0.004,0.022-0.006,0.03l0.075,0.025c-0.033,0.182-0.064,0.364-0.093,0.55l-0.075-0.023
		c-0.002,0.009-0.003,0.02-0.006,0.029l0.077,0.02c-0.027,0.183-0.052,0.368-0.072,0.556l-0.077-0.019
		c-0.001,0.01-0.003,0.02-0.004,0.031l0.077,0.012C332.202,39.259,332.189,39.398,332.178,39.541z"/>
	<path fill="none" d="M336.07,31.082c-0.106,0.089-0.212,0.182-0.314,0.279l-0.041-0.094c-0.008,0.005-0.013,0.011-0.02,0.017
		l0.045,0.091c-0.111,0.104-0.22,0.214-0.328,0.325l-0.045-0.091c-0.006,0.007-0.012,0.014-0.018,0.019l0.047,0.088
		c-0.105,0.112-0.212,0.229-0.315,0.348l-0.047-0.086c-0.007,0.006-0.011,0.014-0.018,0.021l0.05,0.082
		c-0.082,0.097-0.163,0.198-0.244,0.3l2.582,3.085L336.07,31.082z"/>
	<path fill="none" d="M332.134,41.564l4.799-1.146l-1.089-0.77l-3.675-0.012c-0.001,0.016-0.004,0.028-0.005,0.042l-0.077-0.013
		c-0.001,0.012-0.002,0.021-0.002,0.031l0.078,0.009c-0.007,0.093-0.014,0.187-0.019,0.28c-0.006,0.093-0.01,0.188-0.014,0.28
		l-0.077-0.007c-0.001,0.012-0.001,0.021-0.002,0.032l0.078,0.001c-0.007,0.188-0.012,0.377-0.013,0.563l-0.078-0.001
		c0.002,0.011,0.002,0.02,0.002,0.032l0.076-0.006c0,0.189,0.005,0.378,0.01,0.563l-0.077,0.005c0,0.011,0.001,0.021,0.001,0.031
		l0.077-0.01C332.129,41.503,332.132,41.534,332.134,41.564z"/>
	<path fill="none" d="M338.229,41.333l-1.189-0.841l-4.901,1.171c0.007,0.124,0.012,0.247,0.021,0.37l-0.078,0.01
		c0.001,0.009,0.001,0.021,0.002,0.031l0.078-0.017c0.014,0.189,0.029,0.375,0.051,0.56l-0.076,0.015
		c0,0.012,0.002,0.021,0.003,0.031l0.076-0.021c0.021,0.185,0.044,0.37,0.071,0.551l-0.077,0.023
		c0.001,0.01,0.003,0.021,0.004,0.032l0.078-0.029c0,0.007,0.002,0.016,0.003,0.022l4.82-0.562L338.229,41.333z"/>
	<path fill="none" d="M337.026,42.786l-4.718,0.551c0.023,0.145,0.046,0.288,0.072,0.43l-0.076,0.027
		c0.002,0.01,0.003,0.02,0.004,0.03l0.077-0.032c0.034,0.182,0.07,0.36,0.111,0.538l-0.075,0.032
		c0.003,0.01,0.005,0.021,0.008,0.029l0.073-0.037c0.041,0.178,0.085,0.354,0.132,0.528l-0.073,0.038
		c0.004,0.01,0.006,0.021,0.009,0.029l0.071-0.043c0.021,0.078,0.045,0.156,0.067,0.234l3.4-1.249L337.026,42.786z"/>
	<path fill="none" d="M333.843,33.858l4.107,3.403l-0.484-1.593l-2.696-3.224c-0.002,0.002-0.003,0.005-0.005,0.006l-0.027-0.044
		l-0.028-0.034c-0.004,0.006-0.008,0.011-0.012,0.017l0.055,0.079c-0.099,0.128-0.196,0.26-0.291,0.393l-0.052-0.078
		c-0.006,0.008-0.011,0.016-0.016,0.021l0.056,0.075c-0.093,0.135-0.186,0.272-0.274,0.415l-0.056-0.076
		c-0.005,0.009-0.01,0.017-0.016,0.023l0.059,0.071c-0.088,0.142-0.175,0.285-0.258,0.433l-0.059-0.07
		c-0.006,0.008-0.01,0.017-0.015,0.024l0.061,0.066C333.875,33.796,333.859,33.828,333.843,33.858z"/>
	<path fill="none" d="M335.861,39.55l1.233,0.003l-3.972-4.158c-0.044,0.111-0.088,0.223-0.129,0.337l-0.068-0.05
		c-0.003,0.008-0.007,0.019-0.01,0.027l0.069,0.047c-0.06,0.168-0.116,0.339-0.171,0.512l-0.071-0.047
		c-0.004,0.009-0.006,0.02-0.01,0.029l0.074,0.042c-0.055,0.171-0.105,0.346-0.154,0.521l-0.071-0.04
		c-0.004,0.009-0.006,0.019-0.009,0.03l0.075,0.034c-0.034,0.124-0.064,0.251-0.095,0.377L335.861,39.55z"/>
	<path fill="none" d="M336.141,43.979l-2.652,3.203c0.045,0.089,0.086,0.18,0.132,0.268l-0.064,0.063
		c0.005,0.01,0.008,0.017,0.012,0.024l0.062-0.067c0.077,0.15,0.157,0.3,0.241,0.443l-0.062,0.069
		c0.005,0.008,0.009,0.016,0.014,0.024l0.06-0.074c0.084,0.145,0.17,0.285,0.258,0.425l-0.059,0.072
		c0.005,0.008,0.01,0.015,0.015,0.022l0.056-0.076c0.051,0.076,0.103,0.151,0.153,0.227l2.986-5.046L336.141,43.979z"/>
	<path fill="none" d="M333.156,35.307l4.056,4.249l1.438,0.003l-0.652-2.143l-4.197-3.479c-0.051,0.094-0.103,0.185-0.149,0.279
		l-0.062-0.065c-0.004,0.008-0.01,0.016-0.014,0.024l0.064,0.062c-0.077,0.152-0.154,0.31-0.227,0.468l-0.063-0.061
		c-0.004,0.008-0.008,0.018-0.011,0.025l0.064,0.057c-0.073,0.156-0.141,0.319-0.209,0.484l-0.065-0.057
		c-0.004,0.009-0.009,0.018-0.012,0.027l0.069,0.052C333.176,35.258,333.166,35.283,333.156,35.307z"/>
	<path fill="none" d="M332.736,45.229c0.019,0.065,0.036,0.132,0.057,0.195l-0.071,0.044c0.004,0.008,0.007,0.019,0.01,0.028
		l0.068-0.048c0.054,0.169,0.111,0.339,0.171,0.506l-0.069,0.047c0.003,0.009,0.008,0.019,0.011,0.028l0.067-0.054
		c0.06,0.166,0.123,0.331,0.188,0.491l-0.067,0.055c0.004,0.007,0.008,0.018,0.011,0.026l0.066-0.059
		c0.066,0.162,0.136,0.321,0.207,0.477l-0.064,0.06c0.003,0.007,0.006,0.017,0.011,0.025l0.063-0.062
		c0.019,0.039,0.037,0.076,0.056,0.114l2.542-3.071L332.736,45.229z"/>
	<path fill="none" d="M341.918,51.637c0.056-0.021,0.112-0.037,0.168-0.06l0.017,0.105c0.008-0.003,0.015-0.005,0.022-0.008
		l-0.022-0.104c0.129-0.052,0.257-0.108,0.381-0.167l0.021,0.104c0.007-0.002,0.015-0.006,0.022-0.01l-0.027-0.103
		c0.128-0.062,0.252-0.125,0.377-0.195l0.025,0.104c0.007-0.004,0.014-0.007,0.021-0.011l-0.029-0.102
		c0.124-0.07,0.245-0.144,0.367-0.222l0.03,0.103c0.005-0.004,0.01-0.007,0.014-0.011l-1.625-3.879L341.918,51.637z"/>
	<path fill="none" d="M341.579,45.292l0.089,1.676l1.658,3.956c0.104-0.069,0.208-0.141,0.311-0.216l0.033,0.1
		c0.007-0.004,0.013-0.008,0.02-0.015l-0.037-0.096c0.118-0.088,0.234-0.181,0.35-0.277l0.036,0.097
		c0.007-0.004,0.013-0.01,0.021-0.016l-0.041-0.094c0.116-0.096,0.228-0.195,0.339-0.3l0.041,0.092
		c0.006-0.004,0.013-0.01,0.019-0.017l-0.044-0.089c0.021-0.021,0.042-0.044,0.065-0.064L341.579,45.292z"/>
	<path fill="none" d="M341.527,44.306l0.044,0.825l2.921,4.844c0.069-0.069,0.141-0.136,0.208-0.207l0.044,0.091
		c0.006-0.008,0.013-0.012,0.019-0.02l-0.049-0.086c0.01-0.01,0.019-0.021,0.028-0.03C343.481,48.05,342.404,46.233,341.527,44.306z
		"/>
	<polygon points="340.414,37.029 340.775,38.444 340.951,38.259 340.691,36.211 	"/>
	<polygon points="340.153,36.013 340.381,36.903 340.671,36.052 340.469,34.448 	"/>
	<polygon points="340.801,38.542 340.876,38.835 341.012,38.739 340.965,38.37 	"/>
	<path d="M340.899,38.932l0.118,0.463c0.025,0.034,0.05,0.071,0.074,0.111l0.006-0.09l-0.072-0.574L340.899,38.932z"/>
	<polygon points="342.99,43.005 341.898,41.552 341.697,41.658 342.352,42.895 	"/>
	<polygon points="342.258,42.879 341.631,41.693 341.395,41.821 341.443,42.738 	"/>
	<path d="M343.279,35.935l-0.591,1.602l4.084-2.93c-0.016-0.034-0.03-0.07-0.046-0.105l0.066-0.06
		c-0.004-0.008-0.008-0.017-0.012-0.025l-0.065,0.062c-0.07-0.154-0.146-0.309-0.224-0.459l0.063-0.063
		c-0.003-0.008-0.008-0.017-0.012-0.025l-0.062,0.068c-0.078-0.15-0.158-0.299-0.242-0.443l0.063-0.068
		c-0.006-0.008-0.01-0.017-0.015-0.024l-0.06,0.073c-0.083-0.146-0.17-0.286-0.257-0.425l0.055-0.067L343.279,35.935z"/>
	<path d="M347.969,42.393c0.001-0.009,0.002-0.016,0.002-0.025l-0.027-0.012l-0.05-0.007c0.002-0.003,0.002-0.007,0.002-0.011
		l-0.086-0.033c-0.01,0.016-0.022,0.026-0.03,0.044c-0.207,0.447-0.292,0.943-0.294,1.429l0.173,0.029
		c0.021-0.093,0.042-0.185,0.058-0.277l0.075,0.031c0.002-0.011,0.004-0.021,0.007-0.031l-0.076-0.025
		c0.033-0.181,0.064-0.364,0.094-0.549l0.075,0.024c0.003-0.01,0.003-0.021,0.005-0.031l-0.076-0.02
		c0.027-0.183,0.051-0.367,0.072-0.556L347.969,42.393z"/>
	<path d="M347.903,42.243c0.003-0.026,0.005-0.054,0.008-0.081c-0.019,0.019-0.032,0.043-0.05,0.064L347.903,42.243z"/>
	<path d="M349.343,39.105c0.003,0.028,0.005,0.056,0.007,0.083c0.004-0.002,0.008-0.005,0.012-0.007L349.343,39.105z"/>
	<path d="M347.67,44.132c0.002-0.012,0.005-0.02,0.008-0.03l-0.074-0.03c0.013-0.057,0.022-0.115,0.036-0.171l-0.161-0.027
		c0.004,0.161,0.031,0.312,0.058,0.468c0.021-0.082,0.042-0.162,0.062-0.244L347.67,44.132z"/>
	<polygon points="341.074,38.694 341.859,38.131 342.072,37.204 341.025,38.307 	"/>
	<path d="M347.135,45.688l-2.979-1.265l2.23,2.969c0.025-0.046,0.052-0.092,0.076-0.141l0.061,0.066
		c0.004-0.009,0.009-0.018,0.013-0.025l-0.063-0.061c0.078-0.153,0.153-0.31,0.227-0.469l0.063,0.061
		c0.004-0.009,0.008-0.018,0.012-0.026l-0.064-0.056c0.071-0.159,0.141-0.321,0.208-0.483l0.065,0.055
		c0.003-0.008,0.008-0.018,0.011-0.025l-0.067-0.052c0.065-0.165,0.129-0.33,0.19-0.499l0.068,0.051
		c0.004-0.01,0.007-0.019,0.011-0.028l-0.069-0.047C347.129,45.704,347.131,45.695,347.135,45.688z"/>
	<polygon points="343.9,44.216 343.072,43.115 342.407,43 342.803,43.749 	"/>
	<polygon points="342.314,42.983 341.449,42.835 341.467,43.183 342.693,43.703 	"/>
	<path d="M347.248,45.278l0.031-0.021c0.006-0.019,0.013-0.037,0.019-0.056l0.026,0.017c-0.004-0.012-0.007-0.024-0.011-0.036
		l-0.008-0.005c0.001-0.004,0.002-0.008,0.004-0.013c-0.003-0.008-0.005-0.016-0.007-0.023l-0.081,0.043
		c-0.026,0.013-0.053-0.004-0.062-0.036l-0.037-0.158c-0.009-0.033,0.006-0.072,0.031-0.085l0.079-0.043
		c-0.006-0.028-0.011-0.058-0.017-0.088l-0.082,0.033c-0.026,0.011-0.053-0.008-0.058-0.043l-0.028-0.164
		c-0.006-0.034,0.01-0.07,0.037-0.081l0.082-0.032c-0.004-0.031-0.009-0.062-0.012-0.091l-0.084,0.023
		c-0.026,0.006-0.05-0.015-0.055-0.05l-0.017-0.167c-0.003-0.036,0.016-0.07,0.042-0.078l0.084-0.024
		c-0.002-0.028-0.005-0.061-0.007-0.091l-0.084,0.014c-0.026,0.004-0.05-0.021-0.051-0.057l-0.005-0.17
		c0-0.004,0.005-0.005,0.006-0.009l-3.799-0.653l0.857,1.142l3.118,1.323c0.023-0.066,0.046-0.135,0.068-0.202l-0.011-0.032
		C347.211,45.334,347.224,45.294,347.248,45.278z"/>
	<path d="M341.16,43.151l-0.02,0.277c0.1,0.238,0.205,0.473,0.31,0.707l-0.047-0.882L341.16,43.151z"/>
	<polygon points="339.708,38.219 339.869,38.412 340.34,37.025 340.121,36.169 	"/>
	<path d="M339.628,38.613c0.003,0.016,0.007,0.031,0.011,0.047l0.113,0.095l0.086-0.25l-0.151-0.182L339.628,38.613z"/>
	<path d="M339.591,38.453l0.04-0.196l-0.112-0.135C339.541,38.233,339.567,38.343,339.591,38.453z"/>
	<polygon points="341.38,42.823 341.185,42.79 341.167,43.054 341.397,43.152 	"/>
	<path d="M350.017,44.097c-0.042,0.03-0.082,0.068-0.119,0.113l-1.072,1.381c0.01,0.05,0.013,0.101,0,0.148
		c-0.026,0.087-0.094,0.131-0.169,0.143c-0.035,0.108-0.042,0.223-0.03,0.334c0.001,0.007,0.001,0.014,0.002,0.02
		c0.013,0.097,0.036,0.189,0.086,0.267c0.463,0.719,1.21,0.974,1.913,0.7c-0.139-1.158-0.276-2.356-0.355-3.169
		C350.184,44.022,350.096,44.043,350.017,44.097z"/>
	<path d="M350.961,45.395c0.056,0.471,0.114,0.971,0.173,1.469c0.126-0.185,0.171-0.447,0.096-0.67L350.961,45.395z"/>
	<path d="M339.524,27.518c0.042-0.004,0.084-0.009,0.126-0.012c0.029-0.133,0.097-0.229,0.178-0.233
		c0.082-0.004,0.152,0.086,0.185,0.215c0.043-0.001,0.085-0.002,0.127-0.002c0.033-0.131,0.104-0.223,0.186-0.221
		c0.082,0.001,0.149,0.096,0.177,0.229c0.043,0.002,0.084,0.004,0.127,0.008c0.037-0.129,0.112-0.216,0.193-0.208
		c0.081,0.007,0.146,0.107,0.168,0.242c0.041,0.005,0.082,0.011,0.124,0.016c0.044-0.126,0.121-0.206,0.202-0.192
		c0.08,0.014,0.141,0.117,0.159,0.253c0.041,0.009,0.083,0.018,0.123,0.027c0.049-0.124,0.129-0.198,0.208-0.178
		c0.08,0.02,0.137,0.126,0.148,0.263c0.043,0.012,0.083,0.024,0.125,0.036c0.052-0.118,0.134-0.187,0.213-0.16
		c0.079,0.025,0.131,0.136,0.14,0.272c0.041,0.015,0.081,0.031,0.122,0.046c0.057-0.115,0.142-0.177,0.218-0.146
		c0.079,0.031,0.127,0.146,0.13,0.284c0.04,0.017,0.08,0.035,0.12,0.054c0.061-0.11,0.147-0.165,0.224-0.128
		c0.075,0.037,0.119,0.154,0.118,0.292c0.04,0.021,0.079,0.043,0.118,0.064c0.064-0.106,0.153-0.155,0.228-0.111
		c0.075,0.042,0.113,0.163,0.107,0.301c0.039,0.023,0.077,0.047,0.116,0.07c0.067-0.099,0.158-0.141,0.23-0.092
		c0.071,0.048,0.107,0.171,0.096,0.309c0.037,0.026,0.076,0.053,0.113,0.079c0.072-0.094,0.162-0.129,0.233-0.076
		c0.071,0.054,0.101,0.18,0.084,0.316c0.037,0.03,0.073,0.06,0.11,0.089c0.074-0.089,0.167-0.118,0.235-0.059
		c0.069,0.058,0.094,0.187,0.072,0.321c0.035,0.033,0.071,0.065,0.106,0.098c0.078-0.085,0.172-0.106,0.239-0.042
		c0.065,0.063,0.086,0.193,0.059,0.327c0.035,0.034,0.067,0.069,0.102,0.104c0.081-0.08,0.176-0.094,0.24-0.025
		c0.061,0.065,0.074,0.188,0.05,0.312l2.192-1.693l-0.637-2.253c-0.227,0.044-0.697,0.124-0.84,0.021
		c-0.151-0.106-0.138-0.531-0.155-0.7c-0.02-0.194-0.104-0.641,0.146-0.747c0.108-0.046,0.297,0.028,0.474,0.097l-2.1-7.429
		c-0.029-0.025-0.05-0.045-0.05-0.045l0.012-0.383c-0.48,0.307-0.989,0.183-1.428-0.13c-0.047,0.014-0.091,0.014-0.137,0.024
		c-1.952,3.094-3.329,6.584-3.989,10.324C339.448,27.372,339.497,27.427,339.524,27.518z"/>
	<path d="M353.327,43.481c-0.032-0.315-0.248-0.526-0.489-0.471l-1.552,0.36c-0.144,0.034-0.271,0.156-0.345,0.33
		c-0.049,0.115-0.068,0.245-0.061,0.368c0.005,0.062,0.018,0.123,0.037,0.181l0.601,1.788c0.098,0.284,0.35,0.402,0.573,0.264
		c0.812-0.497,1.32-1.646,1.238-2.794C353.328,43.5,353.328,43.491,353.327,43.481z"/>
	<path d="M347.471,41.362l0.074,0.044c0.011-0.027,0.024-0.055,0.035-0.084l-0.071-0.053c-0.022-0.017-0.028-0.057-0.016-0.089
		l0.07-0.15c0.014-0.032,0.043-0.043,0.065-0.026l0.072,0.052c0.013-0.026,0.025-0.053,0.039-0.08l-0.066-0.06
		c-0.021-0.021-0.025-0.061-0.01-0.092l0.078-0.142c0.017-0.031,0.047-0.04,0.069-0.021l0.065,0.062
		c0.016-0.025,0.029-0.051,0.045-0.077l-0.062-0.068c-0.019-0.022-0.021-0.063-0.002-0.091l0.047-0.075l-3.118-0.414l-1.122,0.603
		l3.572,1.383c-0.007-0.016-0.021-0.026-0.015-0.044l0.05-0.163c0.01-0.033,0.038-0.053,0.062-0.042l0.078,0.036
		c0.01-0.03,0.02-0.059,0.029-0.088l-0.074-0.045c-0.024-0.013-0.033-0.053-0.021-0.085l0.059-0.157
		C347.417,41.363,347.446,41.349,347.471,41.362z"/>
	<path d="M347.223,42.121l0.08,0.026c0.003-0.012,0.006-0.023,0.009-0.035l-3.755-1.451l-1.588,0.852l1.135,1.513l4.005,0.687h0.002
		c0-0.032,0-0.062,0-0.095l-0.084,0.005c-0.026,0.001-0.047-0.026-0.046-0.062l0.005-0.172c0.001-0.035,0.024-0.065,0.051-0.067
		l0.085-0.003c0.002-0.031,0.004-0.062,0.006-0.093l-0.084-0.007c-0.026-0.002-0.045-0.032-0.041-0.069l0.016-0.169
		c0.005-0.036,0.028-0.064,0.056-0.062l0.083,0.006c0.003-0.031,0.009-0.061,0.013-0.093l-0.083-0.016
		c-0.025-0.005-0.043-0.037-0.037-0.074l0.027-0.168c0.006-0.035,0.032-0.062,0.059-0.056l0.083,0.017
		c0.006-0.031,0.011-0.062,0.017-0.093l-0.08-0.025c-0.025-0.008-0.039-0.043-0.031-0.079l0.039-0.166
		C347.169,42.135,347.196,42.114,347.223,42.121z"/>
	<path d="M349.94,39.49c-0.148,0.023-0.295,0.068-0.438,0.135c-0.022,0.069-0.06,0.131-0.119,0.167
		c0.002,0.06,0.005,0.119,0.007,0.18c0.093,0.038,0.159,0.134,0.161,0.247c0.001,0.116-0.062,0.218-0.153,0.267
		c0,0.06,0,0.119-0.002,0.179c0.094,0.047,0.156,0.146,0.155,0.261c-0.003,0.115-0.07,0.213-0.165,0.254
		c-0.001,0.06-0.003,0.119-0.006,0.178c0.09,0.053,0.148,0.157,0.144,0.272c-0.007,0.116-0.077,0.208-0.174,0.243
		c-0.004,0.059-0.009,0.119-0.014,0.177c0.089,0.059,0.144,0.168,0.134,0.282c-0.002,0.022-0.017,0.038-0.023,0.058l0.389,0.266
		c0.124,0.086,0.277,0.082,0.41-0.008c0.088-0.061,0.16-0.155,0.207-0.269c0.024-0.056,0.042-0.116,0.053-0.181l0.001-0.004
		c-0.066-0.04-0.104-0.071-0.104-0.071L349.94,39.49z"/>
	<path d="M349.906,43.425c-0.009-0.128-0.048-0.242-0.111-0.33c-0.03-0.043-0.067-0.08-0.107-0.108l-0.414-0.283
		c-0.001,0.012-0.003,0.023-0.004,0.034c0.087,0.066,0.137,0.181,0.122,0.292c-0.015,0.114-0.092,0.195-0.188,0.216
		c-0.008,0.06-0.018,0.116-0.026,0.175c0.083,0.072,0.131,0.188,0.11,0.302c-0.02,0.111-0.098,0.188-0.194,0.202
		c-0.011,0.057-0.022,0.114-0.034,0.172c0.08,0.079,0.122,0.197,0.099,0.31c-0.022,0.108-0.104,0.178-0.201,0.187
		c-0.013,0.057-0.026,0.114-0.04,0.171c0.041,0.045,0.068,0.102,0.083,0.16l0.757-0.974
		C349.865,43.81,349.921,43.615,349.906,43.425z"/>
	<path d="M351.176,43.002c0.03,0.006,0.063,0.001,0.096-0.002c-0.14-0.057-0.255-0.117-0.344-0.181
		c0.004,0.006,0.004,0.014,0.008,0.02C351,42.928,351.084,42.984,351.176,43.002z"/>
	<path d="M340.451,38.909c0.064,0.027,0.124,0.061,0.184,0.1l0.18-0.129l-0.07-0.279L340.451,38.909z"/>
	<path d="M339.922,38.476l0.312,0.373c0.043,0.007,0.086,0.018,0.128,0.03l0.356-0.376l-0.346-1.354L339.922,38.476z"/>
	<path d="M339.811,38.804l0.062,0.05c0.079-0.016,0.16-0.021,0.242-0.019l-0.225-0.269L339.811,38.804z"/>
	<path d="M340.84,38.974l-0.126,0.092c0.069,0.054,0.136,0.118,0.197,0.188L340.84,38.974z"/>
	<path d="M347.976,38.805l-0.077,0.021c-0.019-0.155-0.039-0.312-0.061-0.466l-2.908,1.562l3.059,0.406
		c-0.001-0.103-0.001-0.205-0.004-0.307l0.077-0.003c-0.001-0.013-0.001-0.022-0.002-0.032l-0.076,0.01
		c-0.008-0.188-0.017-0.375-0.03-0.562l0.078-0.009c-0.001-0.011-0.002-0.022-0.003-0.032l-0.077,0.015
		c-0.014-0.187-0.03-0.373-0.051-0.558l0.078-0.016C347.979,38.825,347.977,38.815,347.976,38.805z"/>
	<path d="M372.964,10.505c0.231,0.396,0.321,0.08,0.634,0.043c0.009-0.001,0.03,0.004,0.042,0.004
		c0.011-0.098,0.031-0.192,0.069-0.273l0.13,0.005L372.9,9.957C372.868,10.145,372.878,10.357,372.964,10.505z"/>
	<path d="M351.822,39.772l0.014,0.09l0.041-0.072C351.858,39.784,351.84,39.778,351.822,39.772z"/>
	<path d="M344.968,16.443c-0.183,0.072-0.373,0.137-0.553,0.213l0.552-0.167L344.968,16.443z"/>
	<path d="M348.961,14.566c0.43,0.107,1.501,0.569,1.484,1.11c-0.463,0.197-0.88-0.025-1.336-0.07
		c-0.237-0.023-0.515-0.033-0.785-0.024c-0.118,0.411-0.502,0.9-0.818,1.183c-0.253,0.226-0.482,0.325-0.719,0.323
		c-0.05,0.243-0.062,0.422-0.062,0.422c-0.008,0.004-0.015,0.006-0.022,0.01l1.956,6.789c0-0.005,0.003-0.01,0.004-0.016
		l0.027,0.125l0.869,3.018l14.428-11.138c0.012-0.03,0.019-0.067,0.031-0.094l-1.154-3.913c0.782-1.604,1.863-0.933,1.863-0.933
		l1.23-1.081l-0.13-0.227c-0.332-0.302-0.64-0.642-1.026-0.881c-0.824-0.512-0.684,0.254-1.35,0.504
		c-0.581,0.218-1.123-0.32-1.557-0.588c-0.667-0.412-1.11,0.188-1.789-0.046c-0.394-0.135-0.86-0.569-0.896-0.997
		c-0.063-0.779,0.708-0.354,0.895-0.646l-4.166-1.305c-4.33,1.954-8.088,4.942-10.963,8.655c0.686-0.098,1.365-0.216,2.048-0.284
		C347.65,14.399,348.372,14.419,348.961,14.566z"/>
	<path d="M347.672,15.658c-0.015,0.009-0.03,0.017-0.045,0.025l0.156-0.047c-0.018,0.003-0.038,0.004-0.055,0.008
		C347.71,15.648,347.69,15.654,347.672,15.658z"/>
	<path d="M342.87,43.877l2.615,4.951c0.055-0.072,0.11-0.146,0.165-0.222l0.053,0.079c0.006-0.008,0.011-0.015,0.016-0.022
		l-0.057-0.075c0.094-0.134,0.186-0.271,0.274-0.413l0.059,0.076c0.003-0.008,0.008-0.016,0.013-0.024l-0.059-0.071
		c0.088-0.141,0.175-0.285,0.258-0.434l0.059,0.071c0.006-0.008,0.01-0.018,0.015-0.024l-0.061-0.066
		c0.043-0.075,0.084-0.156,0.126-0.233l-2.335-3.106L342.87,43.877z"/>
	<path d="M339.696,38.912c0.002-0.001,0.003-0.002,0.004-0.002l0.022-0.065l-0.051-0.042
		C339.68,38.839,339.688,38.876,339.696,38.912z"/>
	<path d="M347.543,36.518l-0.072,0.044c-0.003-0.008-0.005-0.016-0.008-0.022l-3.863,3.207l1.179,0.156l3.122-1.677
		c0-0.001,0-0.002-0.002-0.005l-0.076,0.028c-0.027-0.185-0.058-0.365-0.092-0.547l0.076-0.026
		c-0.002-0.011-0.004-0.021-0.005-0.031l-0.076,0.032c-0.033-0.181-0.071-0.361-0.111-0.538l0.075-0.033
		c-0.003-0.01-0.006-0.02-0.008-0.029l-0.072,0.038c-0.042-0.178-0.086-0.354-0.133-0.528l0.073-0.04
		C347.548,36.537,347.546,36.527,347.543,36.518z"/>
	<path d="M341.114,39.548l-0.005-0.037l-0.018-0.003C341.1,39.521,341.107,39.534,341.114,39.548z"/>
	<path d="M342.633,37.688l-0.678,1.839l1.531,0.203l3.952-3.28c-0.038-0.136-0.077-0.273-0.12-0.406L347.391,36
		c-0.003-0.01-0.006-0.02-0.009-0.028l-0.071,0.049c-0.053-0.171-0.109-0.339-0.169-0.507l0.069-0.049
		c-0.003-0.009-0.007-0.018-0.01-0.026l-0.069,0.053c-0.059-0.165-0.124-0.331-0.188-0.491l0.067-0.054
		c-0.003-0.008-0.008-0.018-0.011-0.026l-0.066,0.058c-0.039-0.097-0.082-0.19-0.124-0.286L342.633,37.688z"/>
	<polygon points="341.195,39.648 341.486,39.76 341.531,39.566 341.18,39.52 	"/>
	<polygon points="341.843,41.479 341.717,41.309 341.575,41.426 341.657,41.579 	"/>
	<path d="M341.389,40.512c0.006,0.078,0.008,0.157,0.006,0.239l0.021,0.025l0.304-0.826l-0.185-0.072L341.389,40.512z"/>
	<polygon points="341.604,39.577 341.555,39.786 341.75,39.862 341.845,39.608 	"/>
	<polygon points="343.447,40.618 342.835,40.38 341.777,41.259 341.914,41.441 	"/>
	<polygon points="341.918,38.202 341.624,39.483 341.878,39.517 342.523,37.767 	"/>
	<polygon points="344.636,39.978 343.5,39.829 342.916,40.313 343.554,40.561 	"/>
	<polygon points="341.166,39.423 341.552,39.475 341.829,38.265 341.087,38.797 	"/>
	<polygon points="341.82,39.891 342.825,40.279 343.386,39.812 341.921,39.617 	"/>
	<polygon points="341.665,41.241 341.436,40.936 341.387,41.068 341.536,41.35 	"/>
	<path d="M341.12,41.867l0.062-0.033l0.006-0.087l-0.013,0.012C341.158,41.796,341.139,41.831,341.12,41.867z"/>
	<path d="M341.032,42.015c-0.091,0.14-0.196,0.254-0.312,0.35c0.034,0.09,0.072,0.179,0.106,0.269l0.298,0.051l0.051-0.744
		L341.032,42.015z"/>
	<polygon points="341.517,41.475 341.188,41.747 341.257,41.755 341.252,41.796 341.324,41.757 341.323,41.747 341.352,41.743 
		341.591,41.615 	"/>
	<path d="M341.095,43.124l-0.089-0.038c0.026,0.066,0.051,0.133,0.078,0.198L341.095,43.124z"/>
	<path d="M341.102,43.026l0.017-0.248l-0.251-0.043c0.03,0.077,0.061,0.153,0.091,0.23L341.102,43.026z"/>
	<polygon points="341.247,41.901 341.191,42.694 341.376,42.727 341.329,41.856 	"/>
	<path d="M341.467,39.852l-0.253-0.097c0.068,0.165,0.121,0.346,0.151,0.537L341.467,39.852z"/>
	<polygon points="342.745,40.347 341.789,39.977 341.468,40.848 341.726,41.191 	"/>
	<path d="M341.355,41.169c-0.026,0.147-0.062,0.29-0.11,0.423l0.231-0.193L341.355,41.169z"/>
	<polygon points="341.949,38.066 342.58,37.614 343.147,36.072 342.169,37.102 	"/>
	<path d="M371.841,44.306l-2.478,0.991l-4.546,7.54c0.041,0.045,0.081,0.096,0.125,0.144l-0.085,0.112
		c0.008,0.009,0.016,0.019,0.025,0.028l0.08-0.118c0.159,0.173,0.322,0.337,0.483,0.498l-0.079,0.12
		c0.01,0.007,0.018,0.017,0.026,0.026l0.077-0.126c0.165,0.161,0.334,0.318,0.505,0.468l-0.076,0.124
		c0.01,0.008,0.02,0.017,0.029,0.024l0.069-0.129c0.097,0.083,0.194,0.161,0.291,0.241l5.175-6.691L371.841,44.306z"/>
	<path d="M371.439,47.78l-5.061,6.542c0.049,0.041,0.096,0.081,0.145,0.121l-0.07,0.128c0.01,0.006,0.021,0.014,0.03,0.023
		l0.063-0.134c0.179,0.139,0.36,0.271,0.543,0.398l-0.062,0.132c0.009,0.008,0.019,0.015,0.03,0.022l0.058-0.136
		c0.185,0.124,0.37,0.245,0.559,0.359l-0.059,0.138c0.011,0.007,0.021,0.014,0.031,0.02l0.055-0.141
		c0.167,0.1,0.338,0.193,0.508,0.287l2.959-5.413L371.439,47.78z"/>
	<path d="M368.253,55.736l0.036-0.104l-0.053,0.095C368.242,55.731,368.249,55.734,368.253,55.736z"/>
	<path d="M368.31,55.595c0.19,0.1,0.385,0.195,0.582,0.282l-0.049,0.145c0.011,0.006,0.021,0.009,0.032,0.014l0.043-0.146
		c0.197,0.088,0.397,0.17,0.6,0.246l-0.041,0.146c0.011,0.003,0.021,0.009,0.033,0.011l0.035-0.146
		c0.201,0.075,0.404,0.146,0.61,0.207l-0.034,0.147c0.01,0.003,0.023,0.007,0.034,0.008l0.026-0.146
		c0.085,0.025,0.171,0.045,0.255,0.069l0.696-6.008L368.31,55.595z"/>
	<path d="M368.712,44.329l-7.503,1.333c0.046,0.197,0.093,0.396,0.143,0.588l-0.119,0.048c0.003,0.014,0.005,0.028,0.009,0.042
		l0.12-0.055c0.066,0.248,0.138,0.492,0.214,0.735l-0.118,0.055c0.004,0.015,0.01,0.027,0.015,0.04l0.114-0.062
		c0.076,0.244,0.158,0.482,0.244,0.721l-0.115,0.06c0.007,0.014,0.011,0.026,0.017,0.04l0.11-0.067
		c0.04,0.105,0.083,0.211,0.125,0.317l5.354-2.146L368.712,44.329z"/>
	<path d="M367.375,46.095l-4.032,4.772c0.074,0.119,0.148,0.241,0.226,0.356l-0.097,0.098c0.007,0.012,0.015,0.021,0.022,0.033
		l0.094-0.103c0.134,0.2,0.271,0.396,0.413,0.587l-0.095,0.104c0.008,0.012,0.015,0.022,0.022,0.034l0.092-0.111
		c0.142,0.19,0.289,0.378,0.439,0.561l-0.09,0.106c0.009,0.011,0.018,0.02,0.025,0.03l0.084-0.113
		c0.085,0.101,0.173,0.198,0.26,0.297l4.449-7.378L367.375,46.095z"/>
	<path d="M362.014,48.244c0.036,0.088,0.066,0.179,0.104,0.265l-0.111,0.067c0.008,0.012,0.013,0.025,0.018,0.039l0.108-0.074
		c0.096,0.23,0.197,0.458,0.305,0.682l-0.107,0.075c0.006,0.012,0.013,0.024,0.018,0.038l0.104-0.083
		c0.106,0.224,0.219,0.444,0.334,0.662l-0.104,0.083c0.007,0.011,0.012,0.022,0.02,0.034l0.101-0.087
		c0.116,0.215,0.237,0.43,0.362,0.636l-0.101,0.091c0.005,0.011,0.012,0.023,0.02,0.034l0.1-0.096
		c0.029,0.054,0.062,0.103,0.096,0.153l3.865-4.575L362.014,48.244z"/>
	<path d="M377.103,56.053c0.087-0.034,0.177-0.066,0.265-0.102l0.034,0.144c0.011-0.005,0.023-0.01,0.034-0.014l-0.041-0.143
		c0.202-0.087,0.4-0.181,0.598-0.277l0.042,0.143c0.01-0.006,0.022-0.011,0.032-0.018l-0.047-0.14
		c0.199-0.1,0.395-0.204,0.587-0.316l0.048,0.143c0.012-0.008,0.022-0.012,0.033-0.019l-0.055-0.138
		c0.193-0.111,0.385-0.23,0.574-0.354l0.054,0.14c0.006-0.006,0.017-0.012,0.022-0.015l-2.848-5.203L377.103,56.053z"/>
	<path d="M371.27,50.174l-0.727,6.287c0.085,0.022,0.171,0.049,0.258,0.07l-0.027,0.147c0.011,0.004,0.022,0.007,0.035,0.01
		l0.021-0.151c0.208,0.049,0.416,0.092,0.626,0.127l-0.022,0.153c0.012,0.001,0.021,0.003,0.035,0.007l0.015-0.154
		c0.209,0.033,0.419,0.062,0.632,0.085l-0.016,0.151c0.012,0.003,0.023,0.004,0.034,0.004l0.011-0.15
		c0.127,0.01,0.254,0.018,0.381,0.024l-0.187-8.569L371.27,50.174z"/>
	<path d="M378.126,45.146l4.499,6.572c0.083-0.108,0.167-0.217,0.248-0.33l0.09,0.105c0.009-0.012,0.017-0.022,0.024-0.034
		l-0.097-0.097c0.142-0.199,0.279-0.401,0.413-0.609l0.096,0.1c0.008-0.011,0.015-0.021,0.022-0.035l-0.101-0.092
		c0.134-0.206,0.262-0.418,0.388-0.634l0.098,0.092c0.006-0.013,0.014-0.024,0.021-0.037l-0.102-0.084
		c0.064-0.11,0.124-0.227,0.188-0.341l-3.934-4.039L378.126,45.146z"/>
	<path d="M377.949,45.094l-2.098-0.606l0.279,2.559l4.979,6.385c0.106-0.104,0.216-0.205,0.318-0.312l0.077,0.12
		c0.009-0.01,0.019-0.018,0.027-0.027l-0.081-0.114c0.163-0.17,0.325-0.345,0.481-0.523l0.081,0.114
		c0.009-0.01,0.019-0.02,0.026-0.03l-0.085-0.108c0.156-0.18,0.312-0.363,0.46-0.553l0.086,0.108c0.008-0.01,0.018-0.02,0.023-0.032
		l-0.089-0.103c0.039-0.05,0.075-0.103,0.114-0.152L377.949,45.094z"/>
	<path d="M376.403,49.589l2.905,5.303c0.163-0.107,0.323-0.219,0.482-0.336l0.059,0.135c0.011-0.008,0.021-0.017,0.03-0.024
		l-0.065-0.129c0.185-0.137,0.364-0.279,0.542-0.425l0.065,0.128c0.009-0.007,0.018-0.015,0.028-0.024l-0.07-0.124
		c0.178-0.148,0.353-0.3,0.522-0.459l0.071,0.124c0.01-0.008,0.02-0.016,0.029-0.025l-0.077-0.12c0.033-0.03,0.066-0.065,0.1-0.097
		l-4.872-6.246L376.403,49.589z"/>
	<path d="M375.239,47.696l-0.288,8.962c0.159-0.025,0.319-0.053,0.479-0.089l0.017,0.153c0.011-0.003,0.022-0.004,0.035-0.007
		l-0.024-0.152c0.211-0.047,0.419-0.1,0.625-0.157l0.023,0.15c0.013-0.004,0.022-0.009,0.035-0.012l-0.029-0.148
		c0.208-0.06,0.414-0.124,0.617-0.198l0.029,0.148c0.013-0.005,0.023-0.007,0.034-0.013l-0.035-0.146
		c0.081-0.03,0.16-0.062,0.24-0.094l-0.696-6.457L375.239,47.696z"/>
	<path d="M373.929,45.306l-1.485,2.722l0.189,8.764c0.049,0.004,0.097,0.01,0.145,0.011l-0.009,0.154
		c0.012-0.001,0.024,0.001,0.035,0.001l0.003-0.153c0.105,0.005,0.211,0.007,0.318,0.009c0.106,0,0.213-0.002,0.318-0.004
		l-0.003,0.155c0.011,0,0.023-0.001,0.034-0.002l-0.003-0.156c0.213-0.004,0.425-0.017,0.635-0.036l0.004,0.155
		c0.013,0,0.024-0.002,0.035-0.005l-0.01-0.151c0.213-0.02,0.424-0.044,0.633-0.076l0.011,0.153
		c0.014-0.002,0.024-0.004,0.035-0.005l-0.017-0.153c0.016-0.002,0.029-0.005,0.044-0.008l0.295-9.169L373.929,45.306z"/>
	<path d="M370.438,42.287l-0.061-0.211l-1.792-0.941l-7.757,2.219c0.018,0.171,0.033,0.344,0.056,0.512l-0.125,0.024
		c0.003,0.013,0.004,0.029,0.005,0.043l0.124-0.032c0.034,0.261,0.073,0.517,0.118,0.771l-0.122,0.03
		c0.002,0.014,0.004,0.027,0.007,0.041l0.121-0.036c0.046,0.255,0.096,0.51,0.15,0.76l-0.121,0.039
		c0.001,0.015,0.005,0.029,0.008,0.043l0.121-0.048c0.002,0.011,0.004,0.021,0.008,0.032l7.668-1.362L370.438,42.287z"/>
	<polygon points="370.275,35.589 370.688,37.067 370.993,37.257 370.677,35.959 	"/>
	<polygon points="366.873,40.089 368.599,40.994 369.684,40.684 368.771,39.951 	"/>
	<polygon points="369.995,40.734 369.964,40.743 370.008,40.778 	"/>
	<polygon points="371.131,37.344 372.496,38.197 372.586,37.714 370.829,36.098 	"/>
	<polygon points="372.908,38.455 373,38.511 372.951,38.327 	"/>
	<path d="M372.51,38.736c0.074-0.046,0.151-0.084,0.229-0.12l0.032-0.093l-0.201-0.125L372.51,38.736z"/>
	<polygon points="373.481,33.408 373.921,35.086 374.106,34.525 373.68,32.318 	"/>
	<polygon points="369.958,40.605 369.751,39.88 368.96,39.938 369.835,40.641 	"/>
	<path d="M360.755,40.396l5.638-0.409l-5.218-2.735c-0.007,0.03-0.014,0.06-0.021,0.09l-0.119-0.042
		c-0.003,0.015-0.007,0.029-0.01,0.043l0.121,0.032c-0.052,0.255-0.103,0.512-0.146,0.77l-0.121-0.034
		c-0.004,0.015-0.005,0.029-0.008,0.044l0.122,0.025c-0.042,0.257-0.08,0.514-0.112,0.775l-0.124-0.025
		c-0.001,0.015-0.003,0.03-0.004,0.043l0.122,0.018c-0.031,0.259-0.059,0.52-0.08,0.783l-0.124-0.018
		c-0.001,0.014-0.001,0.029-0.004,0.044l0.125,0.008C360.775,40.001,360.766,40.199,360.755,40.396z"/>
	<path d="M362.048,34.393l6.757,5.42l0.908-0.066l-1.088-3.814l-5.638-3.523c-0.074,0.137-0.15,0.269-0.222,0.406l-0.103-0.083
		c-0.007,0.011-0.014,0.023-0.021,0.037l0.107,0.077c-0.116,0.221-0.227,0.449-0.332,0.679l-0.106-0.078
		c-0.006,0.013-0.012,0.025-0.015,0.038l0.106,0.07c-0.105,0.23-0.206,0.461-0.301,0.698l-0.109-0.069
		c-0.007,0.012-0.013,0.025-0.017,0.038l0.111,0.064C362.075,34.32,362.062,34.356,362.048,34.393z"/>
	<path d="M366.645,39.968l1.971-0.142L362,34.516c-0.062,0.163-0.127,0.323-0.185,0.485l-0.111-0.062
		c-0.007,0.015-0.011,0.027-0.017,0.04l0.116,0.057c-0.085,0.242-0.165,0.486-0.241,0.731l-0.117-0.056
		c-0.005,0.013-0.009,0.027-0.013,0.042l0.119,0.049c-0.074,0.246-0.146,0.495-0.21,0.746l-0.118-0.049
		c-0.005,0.014-0.007,0.028-0.01,0.043l0.118,0.039c-0.045,0.178-0.085,0.356-0.126,0.537L366.645,39.968z"/>
	<polygon points="370.068,40.991 369.813,40.786 368.771,41.084 370.328,41.901 	"/>
	<path d="M363.052,32.295l5.52,3.449l-0.669-2.341l-3.461-3.187c-0.003,0.004-0.004,0.006-0.007,0.01l-0.046-0.059l-0.047-0.045
		c-0.008,0.008-0.013,0.017-0.02,0.024l0.093,0.104c-0.15,0.189-0.295,0.384-0.438,0.58l-0.089-0.102
		c-0.009,0.01-0.017,0.021-0.023,0.032l0.095,0.097c-0.142,0.199-0.281,0.401-0.413,0.61l-0.095-0.099
		c-0.007,0.012-0.014,0.023-0.021,0.034l0.098,0.092c-0.133,0.206-0.261,0.417-0.386,0.633l-0.099-0.092
		c-0.008,0.013-0.015,0.024-0.021,0.036l0.1,0.086C363.099,32.203,363.076,32.249,363.052,32.295z"/>
	<path d="M360.814,43.218l7.6-2.173l-1.792-0.938l-5.876,0.427c0,0.021-0.003,0.038-0.003,0.059l-0.124-0.009
		c0,0.015,0,0.029-0.002,0.044l0.125,0.002c-0.005,0.13-0.009,0.261-0.012,0.392c-0.001,0.132-0.002,0.263-0.002,0.394l-0.126-0.001
		c0,0.015,0,0.029,0,0.043l0.124-0.006c0.001,0.262,0.007,0.524,0.019,0.785l-0.124,0.009c0.001,0.013,0.001,0.026,0.002,0.042
		l0.123-0.015c0.012,0.262,0.029,0.523,0.051,0.783l-0.124,0.013c0.003,0.017,0.004,0.03,0.004,0.044l0.123-0.022
		C360.807,43.132,360.811,43.175,360.814,43.218z"/>
	<path d="M347.367,32.343c0.094-0.05,0.188-0.027,0.237,0.062c0.049,0.091,0.04,0.226-0.017,0.341
		c0.026,0.047,0.05,0.096,0.073,0.144c0.095-0.041,0.188-0.014,0.235,0.081c0.045,0.095,0.029,0.229-0.028,0.34
		c0.022,0.05,0.045,0.1,0.067,0.148c0.096-0.033,0.188,0.002,0.23,0.099c0.043,0.098,0.022,0.23-0.041,0.338
		c0.021,0.05,0.044,0.102,0.063,0.152c0.096-0.024,0.187,0.016,0.226,0.116c0.038,0.1,0.014,0.231-0.053,0.334
		c0.019,0.052,0.039,0.105,0.057,0.158c0.098-0.018,0.186,0.029,0.22,0.133c0.035,0.103,0.006,0.23-0.064,0.328
		c0.018,0.054,0.036,0.109,0.053,0.164c0.096-0.012,0.183,0.044,0.214,0.148c0.03,0.106-0.003,0.23-0.077,0.322
		c0.016,0.057,0.032,0.113,0.046,0.169c0.097-0.005,0.182,0.056,0.209,0.164c0.025,0.106-0.012,0.23-0.088,0.316
		c0.014,0.058,0.026,0.114,0.039,0.173c0.097,0.002,0.178,0.069,0.2,0.178c0.022,0.109-0.02,0.229-0.099,0.312
		c0.012,0.058,0.022,0.116,0.033,0.174c0.096,0.011,0.175,0.083,0.193,0.194s-0.027,0.229-0.11,0.303
		c0.009,0.059,0.019,0.117,0.027,0.177c0.096,0.02,0.171,0.097,0.185,0.21c0.016,0.111-0.035,0.226-0.121,0.294
		c0.007,0.06,0.015,0.117,0.021,0.179c0.095,0.024,0.168,0.108,0.178,0.222c0.004,0.046-0.009,0.089-0.023,0.131l0.037-0.02
		c0.026-0.013,0.054,0.003,0.061,0.036l0.026,0.105c0.021-0.012,0.045-0.021,0.066-0.029l-0.019-0.11
		c-0.006-0.034,0.012-0.07,0.037-0.08l0.125-0.051c0.018-0.007,0.026,0.014,0.038,0.029l-1.353-7.71l-1.147,0.881
		c0.003,0.066-0.006,0.138-0.035,0.207C347.315,32.251,347.342,32.296,347.367,32.343z"/>
	<path d="M385.059,47.152l-4.844-1.403l3.759,3.863c0.036-0.069,0.076-0.135,0.111-0.205l0.103,0.084
		c0.006-0.013,0.012-0.025,0.018-0.037l-0.104-0.077c0.114-0.221,0.227-0.447,0.332-0.678l0.104,0.076
		c0.006-0.013,0.013-0.025,0.018-0.037l-0.108-0.07c0.106-0.229,0.206-0.463,0.302-0.697l0.109,0.068
		c0.004-0.012,0.011-0.024,0.016-0.038l-0.112-0.063c0.097-0.236,0.187-0.476,0.274-0.717l0.113,0.062
		c0.004-0.013,0.009-0.026,0.014-0.04l-0.115-0.056C385.05,47.178,385.054,47.164,385.059,47.152z"/>
	<path d="M351.699,38.865c0.011-0.033,0.039-0.054,0.063-0.041l0.117,0.053c0.025,0.012,0.037,0.048,0.027,0.084l-0.032,0.105
		c0.021,0.011,0.042,0.023,0.062,0.034l0.039-0.104c0.013-0.034,0.042-0.049,0.066-0.035l0.111,0.067
		c0.025,0.014,0.034,0.053,0.021,0.085l-0.038,0.103c0.015,0.011,0.028,0.021,0.043,0.03l10.761-19.236l-12.744,9.782l1.486,9.129
		L351.699,38.865z"/>
	<path d="M352.821,42.648c0.238-0.055,0.418-0.35,0.406-0.671c-0.01-0.254-0.052-0.493-0.113-0.719l-0.934,1.539L352.821,42.648z"/>
	<path d="M369.448,26.125c-0.011,0.006-0.022,0.01-0.033,0.015l0.042,0.146c-0.202,0.086-0.401,0.18-0.6,0.277l-0.042-0.145
		c-0.01,0.006-0.021,0.011-0.032,0.017l0.049,0.142c-0.095,0.047-0.186,0.099-0.279,0.149l2.223,9.149l1.838,1.694l0.054-0.294
		l-2.989-11.078c-0.064,0.025-0.13,0.048-0.193,0.075L369.448,26.125z"/>
	<path d="M343.223,35.869l1.571-4.26c-0.018-0.018-0.034-0.037-0.051-0.055l0.048-0.088c-0.007-0.006-0.014-0.012-0.019-0.019
		l-0.044,0.092c-0.107-0.108-0.216-0.214-0.326-0.314l0.043-0.09c-0.007-0.006-0.013-0.012-0.019-0.017l-0.041,0.093
		c-0.11-0.1-0.223-0.196-0.338-0.289l0.04-0.094c-0.006-0.005-0.013-0.011-0.02-0.016l-0.035,0.098
		c-0.114-0.093-0.232-0.18-0.35-0.264l0.037-0.099c-0.007-0.004-0.013-0.008-0.02-0.014l-0.033,0.102
		c-0.006-0.004-0.011-0.007-0.016-0.01l-1.445,6.311L343.223,35.869z"/>
	<path d="M368.735,23.668l-0.121-0.029c0.019,0.021,0.042,0.029,0.059,0.055C368.693,23.686,368.715,23.677,368.735,23.668z"/>
	<path d="M345.03,49.404l0.048,0.086c0.005-0.006,0.011-0.013,0.017-0.019l-0.05-0.083c0.103-0.121,0.204-0.244,0.303-0.372
		l0.05,0.083c0.005-0.007,0.011-0.015,0.017-0.021l-0.054-0.079c0.026-0.033,0.051-0.069,0.076-0.104l-2.675-5.064l-1.289-0.548
		l0.055,1.022c0.877,1.928,1.954,3.744,3.215,5.417C344.84,49.619,344.937,49.514,345.03,49.404z"/>
	<path d="M340.113,35.859l0.329-1.621l-0.602-4.748c-0.059,0.003-0.116,0.003-0.174,0.009l-0.002-0.109
		c-0.008,0.001-0.015,0.002-0.022,0.002l0.007,0.109c-0.134,0.014-0.267,0.029-0.397,0.05l-0.006-0.108
		c-0.008,0-0.014,0.001-0.022,0.003l0.01,0.109c-0.05,0.009-0.101,0.021-0.15,0.03c-0.058,0.598-0.092,1.201-0.112,1.809
		L340.113,35.859z"/>
	<path d="M341.012,38.195l1.098-1.154l1.479-6.458c-0.093-0.062-0.186-0.125-0.278-0.184l0.033-0.101
		c-0.006-0.005-0.013-0.009-0.02-0.013l-0.03,0.104c-0.121-0.074-0.243-0.145-0.367-0.21l0.029-0.104
		c-0.007-0.003-0.014-0.007-0.021-0.01l-0.025,0.104c-0.048-0.024-0.095-0.045-0.142-0.069l-2.026,5.961L341.012,38.195z"/>
	<path d="M339.489,37.958l0.163,0.195l0.431-2.137l-1.119-4.37c-0.006,0.246-0.019,0.49-0.019,0.737
		C338.945,34.291,339.136,36.154,339.489,37.958z"/>
	<path d="M340.721,35.905l1.983-5.834c-0.057-0.026-0.112-0.056-0.17-0.082l0.025-0.104c-0.007-0.003-0.013-0.006-0.021-0.009
		l-0.021,0.105c-0.125-0.056-0.253-0.107-0.381-0.153l0.023-0.106c-0.009-0.003-0.015-0.007-0.022-0.009l-0.019,0.108
		c-0.127-0.046-0.257-0.087-0.387-0.124l0.019-0.108c-0.008-0.001-0.014-0.003-0.021-0.005l-0.015,0.107
		c-0.091-0.025-0.182-0.045-0.273-0.066l-0.932,4.615L340.721,35.905z"/>
	<path d="M341.375,29.61c-0.018-0.004-0.034-0.009-0.051-0.013l0.014-0.109c-0.007,0-0.015-0.002-0.021-0.003l-0.012,0.108
		c-0.129-0.026-0.26-0.049-0.394-0.066l0.011-0.108c-0.007-0.002-0.014-0.002-0.022-0.003l-0.005,0.109
		c-0.066-0.01-0.131-0.016-0.199-0.022c-0.066-0.007-0.133-0.013-0.198-0.017l0.006-0.11c-0.006-0.001-0.015-0.001-0.021-0.001
		l-0.002,0.111c-0.134-0.007-0.266-0.011-0.396-0.008l0.001-0.112c-0.007,0-0.015,0.001-0.021,0.001l0.002,0.11
		c-0.053,0.002-0.104,0.006-0.156,0.009l0.576,4.542L341.375,29.61z"/>
	<path d="M345.92,33.033c-0.076-0.118-0.153-0.232-0.233-0.344l0.057-0.078c-0.005-0.007-0.01-0.015-0.015-0.022l-0.055,0.082
		c-0.094-0.131-0.189-0.259-0.287-0.384l0.054-0.082c-0.005-0.006-0.011-0.013-0.017-0.02l-0.051,0.085
		c-0.099-0.124-0.199-0.245-0.302-0.362l0.051-0.083c-0.005-0.008-0.012-0.014-0.017-0.02l-0.048,0.088
		c-0.067-0.077-0.138-0.149-0.207-0.224l-1.498,4.062L345.92,33.033z"/>
	<path d="M381.163,39.398l4.916,0.196c-0.009-0.141-0.015-0.285-0.026-0.426l0.122-0.014c0-0.016-0.002-0.029-0.004-0.044
		l-0.122,0.022c-0.021-0.261-0.051-0.519-0.083-0.776l0.123-0.023c-0.002-0.014-0.004-0.03-0.007-0.044l-0.121,0.031
		c-0.035-0.259-0.073-0.516-0.118-0.771l0.123-0.03c0-0.016-0.001-0.028-0.005-0.043l-0.123,0.038
		c-0.038-0.214-0.082-0.43-0.126-0.641L381.163,39.398z"/>
	<path d="M380.922,39.387l4.881-2.706c-0.001-0.001-0.001-0.004,0-0.006l-0.123,0.047c-0.056-0.252-0.115-0.502-0.181-0.749
		l0.118-0.047c-0.003-0.015-0.006-0.028-0.01-0.042l-0.119,0.055c-0.065-0.248-0.137-0.495-0.213-0.737l0.117-0.054
		c-0.005-0.014-0.008-0.026-0.014-0.041l-0.113,0.062c-0.078-0.242-0.16-0.482-0.245-0.719l0.115-0.062
		c-0.006-0.014-0.009-0.027-0.014-0.041l-0.114,0.069c-0.003-0.01-0.007-0.02-0.012-0.03l-5.971,4.926L380.922,39.387z"/>
	<path d="M376.383,39.205l2.459,0.098l6.107-5.037c-0.069-0.184-0.141-0.37-0.217-0.551l0.112-0.069
		c-0.006-0.014-0.011-0.026-0.017-0.038l-0.109,0.075c-0.098-0.231-0.199-0.458-0.305-0.681l0.11-0.079
		c-0.007-0.012-0.013-0.023-0.02-0.036l-0.105,0.082c-0.106-0.224-0.219-0.443-0.333-0.66l0.104-0.084
		c-0.007-0.011-0.013-0.023-0.02-0.034l-0.103,0.088c-0.069-0.129-0.144-0.257-0.217-0.383l-6.485,4.671L376.383,39.205z"/>
	<path d="M386.089,39.728l-5.148-0.206l-1.757,0.973l6.885,1.772c0.016-0.211,0.03-0.422,0.038-0.636l0.124,0.01
		c0.002-0.015,0.002-0.029,0.002-0.045h-0.125c0.006-0.132,0.01-0.262,0.012-0.393s0.004-0.264,0.004-0.396l0.121,0.002
		c0.001-0.014,0.001-0.028,0.003-0.044l-0.124,0.006c-0.001-0.26-0.007-0.523-0.019-0.784l0.123-0.007
		c-0.002-0.015-0.001-0.028-0.002-0.044l-0.122,0.016C386.099,39.877,386.094,39.803,386.089,39.728z"/>
	<path d="M385.75,44.604l-7.165-0.53l1.444,1.486l5.069,1.468c0.066-0.19,0.13-0.381,0.189-0.572l0.117,0.056
		c0.003-0.014,0.009-0.027,0.012-0.041l-0.119-0.05c0.076-0.245,0.146-0.493,0.212-0.745l0.117,0.049
		c0.003-0.014,0.007-0.028,0.01-0.043l-0.119-0.04c0.064-0.251,0.124-0.504,0.179-0.759l0.119,0.04
		c0.004-0.015,0.005-0.028,0.009-0.043l-0.121-0.034C385.721,44.767,385.735,44.686,385.75,44.604z"/>
	<path d="M373.624,32.029l-1.266-6.532c-0.095,0.012-0.187,0.02-0.277,0.033l-0.012-0.15c-0.011,0.001-0.022,0.003-0.035,0.005
		l0.019,0.149c-0.204,0.032-0.405,0.07-0.604,0.114l1.969,7.515L373.624,32.029z"/>
	<path d="M386.06,42.417c0-0.006,0-0.012,0-0.016l-7.043-1.813l-2.484,1.377l1.912,1.966l7.331,0.541
		c0.026-0.13,0.054-0.261,0.075-0.393l0.121,0.033c0.003-0.015,0.004-0.029,0.008-0.042l-0.122-0.026
		c0.042-0.256,0.079-0.515,0.112-0.776l0.123,0.026c0.003-0.015,0.004-0.031,0.006-0.044l-0.124-0.017
		c0.032-0.259,0.06-0.52,0.08-0.783l0.126,0.019c0.002-0.013,0.002-0.022,0.002-0.035l-0.046-0.013L386.06,42.417z"/>
	<path d="M374.178,34.314l2.794-8.352c-0.093-0.032-0.183-0.065-0.276-0.094l0.034-0.149c-0.01-0.001-0.022-0.006-0.034-0.01
		l-0.028,0.149c-0.204-0.062-0.41-0.117-0.618-0.167l0.028-0.149c-0.012-0.004-0.022-0.008-0.035-0.01l-0.021,0.153
		c-0.206-0.049-0.416-0.091-0.626-0.127l0.022-0.152c-0.012-0.003-0.022-0.004-0.035-0.005l-0.017,0.151
		c-0.145-0.024-0.292-0.041-0.439-0.059l-1.192,6.529L374.178,34.314z"/>
	<path d="M374.82,25.48c-0.029-0.004-0.057-0.01-0.084-0.012l0.016-0.153c-0.012,0-0.024-0.002-0.035-0.003l-0.01,0.153
		c-0.21-0.021-0.422-0.036-0.635-0.045l0.01-0.152c-0.012,0-0.024-0.001-0.035-0.002l-0.004,0.151
		c-0.104-0.003-0.211-0.006-0.318-0.006c-0.105,0-0.211,0-0.317,0.002l0.003-0.155c-0.011,0-0.023,0.001-0.035,0.001l0.004,0.155
		c-0.214,0.005-0.426,0.018-0.636,0.037l-0.004-0.157c-0.011,0.002-0.023,0.003-0.034,0.004l0.01,0.155
		c-0.084,0.008-0.166,0.021-0.249,0.029l1.213,6.25L374.82,25.48z"/>
	<path d="M374.789,37.466l1.681-1.737l1.949-9.16c-0.152-0.076-0.304-0.152-0.458-0.224l0.048-0.144
		c-0.012-0.005-0.022-0.01-0.034-0.016l-0.041,0.147c-0.198-0.088-0.398-0.171-0.6-0.247l0.041-0.147
		c-0.013-0.002-0.023-0.008-0.033-0.012l-0.037,0.148c-0.074-0.027-0.152-0.051-0.229-0.077l-2.855,8.535L374.789,37.466z"/>
	<path d="M378.176,33.965l2.234-6.114c-0.028-0.022-0.056-0.047-0.084-0.069l0.071-0.128c-0.011-0.009-0.021-0.017-0.03-0.023
		l-0.064,0.133c-0.178-0.14-0.358-0.271-0.543-0.399l0.065-0.131c-0.012-0.007-0.021-0.013-0.032-0.021l-0.059,0.137
		c-0.184-0.128-0.37-0.248-0.56-0.362l0.059-0.135c-0.011-0.007-0.021-0.015-0.031-0.021l-0.052,0.14
		c-0.188-0.113-0.382-0.222-0.575-0.323l0.054-0.142c-0.012-0.005-0.022-0.012-0.032-0.018l-0.048,0.144
		c-0.009-0.003-0.017-0.007-0.024-0.012l-1.904,8.952L378.176,33.965z"/>
	<path d="M377.428,36.348l6.34-4.567c-0.027-0.045-0.053-0.093-0.079-0.14l0.102-0.089c-0.007-0.013-0.015-0.024-0.02-0.035
		l-0.101,0.095c-0.125-0.208-0.254-0.412-0.389-0.612l0.099-0.097c-0.008-0.011-0.017-0.022-0.022-0.032l-0.094,0.101
		c-0.135-0.199-0.272-0.396-0.414-0.586l0.094-0.104c-0.008-0.011-0.014-0.022-0.022-0.031l-0.092,0.107
		c-0.141-0.191-0.287-0.377-0.438-0.559l0.083-0.102l-4.206,4.351L377.428,36.348z"/>
	<path d="M382.302,29.695c-0.128-0.153-0.259-0.305-0.395-0.451l0.087-0.114c-0.009-0.01-0.018-0.02-0.026-0.029l-0.081,0.121
		c-0.158-0.173-0.319-0.337-0.484-0.5l0.082-0.119c-0.01-0.009-0.02-0.018-0.029-0.026L381.38,28.7
		c-0.165-0.16-0.333-0.316-0.505-0.466l0.075-0.124c-0.009-0.009-0.02-0.017-0.028-0.025l-0.07,0.129
		c-0.113-0.099-0.229-0.191-0.345-0.286l-2.133,5.829L382.302,29.695z"/>
	<path d="M367.139,24.378c0.026,0.021,0.056,0.03,0.079,0.059c0.061-0.036,0.124-0.072,0.187-0.106
		c-0.011-0.191,0.052-0.362,0.171-0.427c0.118-0.064,0.26-0.004,0.362,0.139c0.063-0.032,0.127-0.063,0.191-0.094
		c-0.004-0.175,0.061-0.317,0.161-0.387l-1.479-0.353L367.139,24.378z"/>
	<polygon points="376.146,39.849 375.689,41.1 376.124,41.547 377.698,40.249 	"/>
	<path d="M370.21,35.356l0.414,0.382l-2.175-8.957c-0.068,0.037-0.138,0.071-0.206,0.109l-0.048-0.14
		c-0.01,0.008-0.021,0.014-0.032,0.021l0.054,0.136c-0.106,0.062-0.211,0.13-0.316,0.194L370.21,35.356z"/>
	<polygon points="376.116,41.711 375.898,41.891 376.039,42.096 376.331,41.932 	"/>
	<polygon points="374.949,38.294 375.117,39.154 375.735,39.179 376.101,37.463 	"/>
	<polygon points="375.677,43.857 375.362,43.835 375.35,44.204 375.726,44.312 	"/>
	<polygon points="377.084,43.831 376.007,42.256 375.635,42.464 375.771,43.733 	"/>
	<polygon points="375.824,39.315 375.761,39.613 376.079,39.695 376.213,39.33 	"/>
	<polygon points="370.741,37.255 371.403,39.623 371.564,39.611 371.038,37.44 	"/>
	<path d="M371.68,39.602h0.003c0.187-0.319,0.426-0.586,0.701-0.784l0.088-0.481l-1.296-0.809L371.68,39.602z"/>
	<polygon points="374.79,38.406 375.002,39.216 375.004,39.153 374.853,38.361 	"/>
	<polygon points="370.186,43.933 371.577,43.686 370.803,43.563 370.677,43.121 	"/>
	<path d="M371.598,39.745l-0.156,0.012l0.065,0.236c0.03-0.079,0.057-0.159,0.094-0.233L371.598,39.745z"/>
	<path d="M373.706,44.66l0.206-0.265l-0.495-0.634c-0.014,0-0.028,0.002-0.043,0.002c-0.055,0-0.11-0.005-0.164-0.012L373.706,44.66
		z"/>
	<polygon points="372.813,38.396 372.899,38.138 372.852,37.961 372.679,37.802 372.597,38.259 	"/>
	<polygon points="373.971,35.278 374.597,37.666 374.696,37.562 374.15,34.743 	"/>
	<polygon points="375.02,39.283 375.03,39.322 375.039,39.335 375.029,39.283 	"/>
	<polygon points="376.031,41.624 375.644,41.226 375.573,41.417 375.83,41.789 	"/>
	<path d="M366.413,28.183c-0.158,0.132-0.313,0.268-0.465,0.406l-0.071-0.126c-0.011,0.01-0.021,0.019-0.029,0.027l0.076,0.121
		c-0.171,0.159-0.338,0.323-0.502,0.491l-0.077-0.12c-0.01,0.009-0.019,0.019-0.027,0.028l0.082,0.116
		c-0.164,0.169-0.325,0.343-0.482,0.521l-0.083-0.113c-0.008,0.009-0.016,0.021-0.025,0.029l0.086,0.108
		c-0.126,0.145-0.249,0.295-0.371,0.445l3.312,3.051L366.413,28.183z"/>
	<polygon points="369.027,44.138 370.039,43.959 370.634,42.973 370.477,42.422 	"/>
	<polygon points="372.731,37.515 372.706,37.654 372.79,37.731 	"/>
	<path d="M375.301,42.383l-0.021,0.02c-0.024,0.052-0.052,0.105-0.081,0.158l0.098-0.054L375.301,42.383z"/>
	<polygon points="375.407,42.444 375.519,42.383 375.517,42.366 375.562,42.357 375.935,42.151 375.807,41.967 375.303,42.383 
		375.409,42.387 	"/>
	<path d="M374.104,43.609l1.155,0.086l0.033-1.042l-0.224,0.122C374.816,43.155,374.484,43.444,374.104,43.609z"/>
	<path d="M375.622,39.715l-0.408-0.105c0.12,0.222,0.215,0.467,0.276,0.729L375.622,39.715z"/>
	<path d="M375.38,42.161l0.359-0.297l-0.21-0.305C375.498,41.769,375.448,41.97,375.38,42.161z"/>
	<polygon points="375.177,39.463 375.649,39.584 375.708,39.312 375.143,39.287 	"/>
	<path d="M375.733,39.742l-0.192,0.899c0.015,0.108,0.021,0.219,0.024,0.332l0.034,0.032l0.435-1.187L375.733,39.742z"/>
	<polygon points="375.367,43.702 375.664,43.725 375.533,42.519 375.402,42.592 	"/>
	<polygon points="367.551,45.885 369.3,45.185 369.948,44.107 368.894,44.296 	"/>
	<polygon points="377.845,40.284 376.21,41.634 376.44,41.872 378.839,40.542 	"/>
	<polygon points="377.18,43.972 375.787,43.867 375.838,44.347 377.832,44.925 	"/>
	<polygon points="376.109,42.197 377.233,43.841 378.264,43.917 376.423,42.026 	"/>
	<polygon points="375.346,44.34 375.293,45.974 376.004,46.883 375.741,44.456 	"/>
	<polygon points="376.027,47.108 375.288,46.159 375.246,47.473 376.27,49.341 	"/>
	<polygon points="374.922,38.152 376.141,37.274 376.42,35.96 374.818,37.617 	"/>
	<path d="M375.254,43.827l-1.476-0.107c-0.071,0.014-0.144,0.025-0.216,0.034l0.424,0.544l0.223-0.287l-0.471-0.135l0.027-0.131
		l0.529,0.154l0.062-0.081l0.077,0.091l-0.019,0.023l0.829,0.242L375.254,43.827z"/>
	<polygon points="374.634,37.808 374.755,38.272 374.824,38.223 374.727,37.712 	"/>
	<polygon points="378.068,34.255 376.57,35.805 376.279,37.174 377.259,36.47 	"/>
	<polygon points="376.192,39.725 377.822,40.146 378.689,39.431 376.334,39.335 	"/>
	<polygon points="376.239,37.364 375.852,39.184 376.259,39.201 377.179,36.688 	"/>
	<polygon points="380.697,39.511 378.872,39.438 377.97,40.183 379.006,40.45 	"/>
	<polygon points="379.795,45.491 378.401,44.061 377.328,43.98 378.009,44.975 	"/>
	<polygon points="373.865,45.188 373.691,44.87 372.409,46.525 372.438,47.8 	"/>
	<path d="M373.63,44.758l-0.562-1.026c-0.02-0.003-0.038-0.007-0.056-0.011l0.024,0.104l-0.68,0.274l0.049,2.241L373.63,44.758z"/>
	<polygon points="375.241,44.31 374.579,44.119 374.275,44.671 375.189,45.843 	"/>
	<path d="M372.973,43.712c-0.095-0.022-0.187-0.054-0.275-0.092l-0.349,0.062l0.006,0.278L372.973,43.712z"/>
	<path d="M367.782,3.545c-3.143,0-6.165,0.51-8.997,1.439c0.006,0.001,0.012,0.003,0.018,0.005c0.549,0.152,1.097,0.307,1.646,0.455
		c0.751,0.204,1.548-0.087,2.265,0.335c0.563,0.331,1,0.763,1.456,1.211c0.431,0.426,0.876,0.835,1.378,1.191
		c0.242,0.17,0.482,0.346,0.735,0.502c0.232,0.145,0.35,0.202,0.395,0.374l2.335,0.365c0,0,1.677-0.969,2.684-0.82l0.112-0.336
		l4.473,1.193c0,0,0.447,1.043-0.856,1.379l-0.633-0.221c0.044,0.083,0.092,0.164,0.157,0.211c0.252,0.185,0.51,0.023,0.765-0.074
		c0.292-0.112,0.452-0.162,0.792-0.057c0.316,0.099,1.564,0.589,1.192,1.073c-0.198,0.257-0.351-0.084-0.55-0.234
		c-0.229-0.174-0.56-0.292-0.828-0.364c-0.401-0.107-0.477-0.025-0.813,0.122c-0.255,0.112-0.688,0.219-0.752-0.19
		c-0.291,0.043-0.496,0.271-0.805,0.107c-0.304,0.272-0.73,0.589-0.837,0.626c-0.58,0.2-1.066-0.277-1.419-0.655
		c-0.164-0.176-0.326-0.409-0.519-0.576c-0.21-0.185-0.527-0.236-0.716-0.414c-0.624,0.181-1.289,0.418-1.809,0.71
		c-0.214,0.185-0.421,0.272-0.421,0.272l-0.522-0.224l-2.459,1.826l0.484,1.827c0,0,0.521-0.162,0.57,0.385
		c0,0,0.447,4.372,1.343,6.112c0.03,0.059,0.042,0.111,0.062,0.167l2.273,0.455c0,0,0.455,0.202,0.77,1.02
		c0.077,0.034,0.149,0.096,0.198,0.202c0.065-0.016,0.134-0.031,0.2-0.045c0.03-0.189,0.125-0.337,0.253-0.361
		c0.13-0.023,0.254,0.083,0.321,0.255c0.066-0.01,0.135-0.021,0.201-0.03c0.038-0.189,0.14-0.331,0.269-0.347
		c0.13-0.017,0.251,0.099,0.312,0.275c0.066-0.006,0.133-0.012,0.199-0.018c0.046-0.188,0.154-0.322,0.284-0.329
		c0.13-0.008,0.245,0.115,0.297,0.298c0.067-0.004,0.135-0.005,0.202-0.007c0.054-0.184,0.166-0.313,0.297-0.312
		c0.131,0,0.239,0.132,0.285,0.316c0.066,0.002,0.133,0.005,0.199,0.008c0.061-0.181,0.18-0.302,0.311-0.293
		c0.129,0.01,0.233,0.146,0.271,0.334c0.065,0.006,0.133,0.014,0.2,0.021c0.066-0.177,0.19-0.29,0.319-0.271
		c0.13,0.017,0.227,0.159,0.256,0.349c0.067,0.01,0.133,0.022,0.2,0.035c0.075-0.173,0.204-0.276,0.33-0.25
		c0.128,0.025,0.218,0.174,0.24,0.363c0.066,0.016,0.133,0.032,0.199,0.048c0.082-0.165,0.213-0.261,0.339-0.227
		c0.127,0.033,0.21,0.188,0.225,0.379c0.066,0.02,0.131,0.039,0.196,0.06c0.088-0.158,0.225-0.247,0.351-0.203
		c0.122,0.042,0.199,0.2,0.206,0.392c0.064,0.024,0.129,0.05,0.194,0.074c0.095-0.154,0.233-0.233,0.354-0.182
		c0.122,0.051,0.192,0.213,0.191,0.404c0.064,0.029,0.128,0.058,0.189,0.087c0.104-0.146,0.243-0.216,0.363-0.157
		c0.119,0.058,0.184,0.226,0.174,0.418c0.061,0.032,0.124,0.063,0.188,0.097c0.106-0.14,0.249-0.2,0.365-0.133
		c0.116,0.065,0.174,0.238,0.154,0.429c0.061,0.037,0.123,0.072,0.183,0.109c0.113-0.133,0.259-0.184,0.374-0.109
		c0.113,0.073,0.162,0.25,0.137,0.44c0.058,0.039,0.116,0.08,0.176,0.12c0.118-0.127,0.266-0.167,0.377-0.086
		c0.11,0.08,0.152,0.26,0.117,0.448c0.058,0.044,0.112,0.089,0.169,0.133c0.124-0.12,0.275-0.15,0.382-0.062
		c0.107,0.088,0.142,0.271,0.098,0.456c0.055,0.047,0.108,0.097,0.163,0.145c0.13-0.113,0.281-0.135,0.384-0.04
		c0.104,0.096,0.13,0.281,0.078,0.465c0.053,0.051,0.105,0.101,0.156,0.153c0.134-0.104,0.287-0.117,0.386-0.015
		c0.099,0.102,0.116,0.29,0.058,0.472c0.05,0.053,0.102,0.107,0.15,0.161c0.138-0.096,0.29-0.097,0.385,0.01
		c0.095,0.109,0.104,0.298,0.038,0.476c0.046,0.057,0.094,0.113,0.143,0.171c0.141-0.086,0.294-0.079,0.383,0.036
		c0.09,0.114,0.091,0.303,0.018,0.477c0.044,0.06,0.091,0.12,0.134,0.18c0.146-0.077,0.298-0.061,0.382,0.061
		c0.086,0.12,0.079,0.309-0.001,0.477c0.043,0.063,0.084,0.127,0.125,0.189c0.149-0.066,0.3-0.04,0.379,0.086
		c0.078,0.124,0.064,0.313-0.022,0.477c0.04,0.064,0.078,0.132,0.118,0.196c0.15-0.058,0.3-0.021,0.375,0.11
		c0.072,0.131,0.05,0.317-0.043,0.476c0.036,0.067,0.075,0.135,0.11,0.205c0.151-0.048,0.299-0.001,0.365,0.134
		c0.069,0.135,0.038,0.319-0.061,0.471c0.032,0.071,0.068,0.142,0.103,0.212c0.153-0.036,0.297,0.019,0.359,0.159
		c0.061,0.14,0.023,0.321-0.083,0.464c0.033,0.073,0.063,0.148,0.094,0.222c0.155-0.026,0.296,0.039,0.353,0.182
		c0.054,0.143,0.01,0.321-0.102,0.458c0.027,0.076,0.057,0.153,0.084,0.228c0.155-0.017,0.293,0.059,0.341,0.204
		c0.05,0.146-0.003,0.322-0.118,0.452c0.025,0.075,0.049,0.156,0.072,0.233c0.156-0.008,0.291,0.076,0.334,0.225
		c0.043,0.149-0.017,0.323-0.138,0.445c0.022,0.079,0.042,0.157,0.063,0.237c0.155,0.004,0.284,0.095,0.322,0.248
		c0.037,0.151-0.031,0.321-0.157,0.435c0.019,0.08,0.036,0.161,0.054,0.241c0.154,0.015,0.28,0.115,0.312,0.269
		c0.03,0.155-0.044,0.321-0.176,0.425c0.014,0.082,0.029,0.162,0.043,0.245c0.153,0.023,0.275,0.132,0.299,0.287
		c0.024,0.157-0.058,0.315-0.192,0.415c0.012,0.081,0.022,0.163,0.033,0.246c0.153,0.033,0.27,0.149,0.287,0.308
		c0.018,0.159-0.072,0.313-0.213,0.402c0.008,0.083,0.016,0.165,0.023,0.247c0.15,0.042,0.264,0.167,0.273,0.325
		c0.012,0.16-0.084,0.311-0.228,0.392c0.003,0.082,0.007,0.163,0.01,0.246c0.151,0.053,0.258,0.184,0.263,0.345
		c0.003,0.161-0.098,0.305-0.247,0.375c0.002,0.081,0.002,0.164,0.002,0.246c0.147,0.062,0.25,0.201,0.246,0.361
		c-0.003,0.163-0.11,0.299-0.261,0.36c-0.003,0.082-0.006,0.165-0.01,0.246c0.145,0.071,0.242,0.218,0.23,0.378
		c-0.009,0.159-0.122,0.291-0.275,0.341c-0.005,0.083-0.012,0.165-0.02,0.248c0.143,0.08,0.23,0.232,0.214,0.393
		c-0.016,0.158-0.133,0.28-0.286,0.322c-0.011,0.081-0.021,0.164-0.031,0.245c0.138,0.091,0.22,0.247,0.195,0.405
		c-0.023,0.158-0.144,0.273-0.299,0.305c-0.014,0.081-0.028,0.162-0.042,0.244c0.133,0.1,0.207,0.262,0.177,0.417
		c-0.028,0.155-0.154,0.263-0.311,0.284c-0.016,0.081-0.034,0.163-0.053,0.242c0.129,0.109,0.196,0.274,0.16,0.429
		s-0.167,0.254-0.321,0.263c-0.021,0.082-0.041,0.162-0.062,0.242c0.122,0.117,0.182,0.285,0.14,0.438
		c-0.042,0.151-0.177,0.239-0.332,0.242c-0.024,0.078-0.049,0.159-0.072,0.237c0.117,0.124,0.169,0.298,0.121,0.446
		c-0.051,0.148-0.187,0.229-0.342,0.22c-0.027,0.079-0.055,0.156-0.082,0.233c0.111,0.131,0.157,0.309,0.102,0.452
		c-0.057,0.146-0.197,0.219-0.352,0.199c-0.03,0.076-0.062,0.15-0.091,0.228c0.107,0.137,0.145,0.316,0.083,0.459
		s-0.205,0.205-0.358,0.176c-0.034,0.074-0.067,0.146-0.102,0.22c0.1,0.146,0.132,0.329,0.064,0.467
		c-0.068,0.138-0.213,0.192-0.367,0.151c-0.035,0.071-0.074,0.143-0.109,0.213c0.095,0.153,0.116,0.338,0.044,0.472
		c-0.072,0.133-0.22,0.178-0.372,0.129c-0.04,0.067-0.078,0.137-0.119,0.204c0.089,0.158,0.104,0.345,0.025,0.475
		c-0.08,0.129-0.23,0.163-0.378,0.104c-0.043,0.065-0.083,0.132-0.125,0.198c0.081,0.163,0.09,0.352,0.004,0.475
		c-0.084,0.124-0.236,0.15-0.382,0.079c-0.044,0.064-0.088,0.126-0.134,0.189c0.075,0.167,0.072,0.356-0.015,0.475
		c-0.089,0.12-0.243,0.135-0.385,0.057c-0.048,0.06-0.095,0.119-0.143,0.179c0.068,0.174,0.06,0.362-0.035,0.476
		c-0.095,0.114-0.247,0.119-0.385,0.029c-0.049,0.058-0.1,0.113-0.149,0.17c0.06,0.179,0.044,0.366-0.055,0.475
		c-0.099,0.105-0.252,0.102-0.385,0.005c-0.053,0.053-0.104,0.105-0.157,0.159c0.052,0.182,0.026,0.37-0.074,0.471
		c-0.104,0.1-0.256,0.086-0.385-0.021c-0.055,0.05-0.107,0.102-0.163,0.15c0.044,0.185,0.011,0.369-0.097,0.462
		c-0.106,0.096-0.257,0.071-0.381-0.042c-0.057,0.046-0.112,0.093-0.17,0.141c0.035,0.187-0.004,0.368-0.114,0.455
		c-0.111,0.086-0.259,0.051-0.38-0.068c-0.059,0.043-0.115,0.087-0.174,0.129c0.028,0.19-0.021,0.368-0.135,0.447
		c-0.112,0.081-0.26,0.038-0.375-0.093c-0.061,0.042-0.119,0.082-0.18,0.119c0.02,0.192-0.036,0.367-0.152,0.439
		c-0.116,0.07-0.262,0.018-0.37-0.116c-0.062,0.037-0.124,0.071-0.185,0.106c0.01,0.194-0.052,0.364-0.172,0.43
		c-0.118,0.062-0.26,0-0.363-0.142c-0.062,0.033-0.127,0.063-0.19,0.097c0.004,0.188-0.065,0.359-0.188,0.415
		s-0.26-0.015-0.357-0.163c-0.062,0.028-0.13,0.056-0.194,0.08c-0.005,0.195-0.082,0.357-0.203,0.405
		c-0.126,0.048-0.262-0.032-0.351-0.188c-0.064,0.027-0.131,0.049-0.197,0.072c-0.014,0.191-0.096,0.351-0.221,0.39
		c-0.127,0.04-0.259-0.048-0.342-0.209c-0.065,0.02-0.133,0.04-0.199,0.058c-0.021,0.192-0.11,0.343-0.237,0.375
		c-0.127,0.034-0.257-0.065-0.331-0.23c-0.067,0.016-0.134,0.029-0.2,0.044c-0.03,0.189-0.127,0.337-0.255,0.361
		c-0.128,0.023-0.252-0.082-0.32-0.254c-0.067,0.01-0.135,0.021-0.202,0.031c-0.036,0.189-0.139,0.329-0.269,0.346
		c-0.13,0.016-0.249-0.099-0.31-0.276c-0.067,0.007-0.135,0.013-0.201,0.018c-0.044,0.188-0.152,0.322-0.283,0.329
		c-0.131,0.008-0.244-0.115-0.299-0.298c-0.066,0.004-0.133,0.005-0.2,0.006c-0.052,0.185-0.167,0.314-0.297,0.312
		c-0.129-0.001-0.238-0.132-0.284-0.315c-0.066-0.003-0.133-0.005-0.201-0.01c-0.061,0.183-0.179,0.305-0.309,0.293
		c-0.13-0.009-0.232-0.145-0.271-0.333c-0.067-0.006-0.133-0.014-0.2-0.021c-0.067,0.176-0.192,0.29-0.32,0.272
		c-0.13-0.02-0.227-0.16-0.256-0.351c-0.066-0.01-0.134-0.021-0.199-0.034c-0.075,0.173-0.204,0.276-0.332,0.251
		c-0.127-0.026-0.218-0.175-0.24-0.365c-0.064-0.015-0.132-0.032-0.197-0.048c-0.082,0.167-0.215,0.261-0.341,0.229
		c-0.126-0.036-0.209-0.189-0.225-0.38c-0.065-0.02-0.13-0.04-0.196-0.06c-0.089,0.156-0.224,0.245-0.348,0.203
		c-0.124-0.043-0.2-0.202-0.208-0.393c-0.064-0.023-0.13-0.048-0.194-0.073c-0.096,0.153-0.233,0.232-0.354,0.181
		c-0.122-0.05-0.191-0.213-0.19-0.405c-0.063-0.027-0.128-0.057-0.191-0.087c-0.103,0.148-0.243,0.218-0.362,0.158
		c-0.12-0.057-0.183-0.225-0.173-0.417c-0.062-0.034-0.123-0.065-0.188-0.098c-0.107,0.141-0.25,0.199-0.367,0.132
		c-0.117-0.063-0.172-0.236-0.153-0.427c-0.062-0.036-0.124-0.073-0.183-0.109c-0.114,0.132-0.26,0.183-0.374,0.11
		c-0.113-0.075-0.162-0.25-0.136-0.441c-0.059-0.04-0.117-0.08-0.176-0.121c-0.119,0.128-0.267,0.168-0.378,0.087
		c-0.111-0.08-0.151-0.258-0.118-0.448c-0.057-0.044-0.11-0.089-0.168-0.133c-0.125,0.118-0.275,0.151-0.384,0.063
		c-0.106-0.091-0.139-0.271-0.097-0.459c-0.054-0.046-0.108-0.096-0.163-0.144c-0.128,0.113-0.281,0.134-0.384,0.039
		c-0.102-0.094-0.128-0.279-0.077-0.464c-0.053-0.052-0.105-0.102-0.157-0.152c-0.135,0.103-0.285,0.116-0.386,0.015
		c-0.099-0.102-0.115-0.291-0.057-0.471c-0.049-0.056-0.101-0.107-0.149-0.161c-0.139,0.093-0.291,0.097-0.385-0.011
		c-0.096-0.11-0.105-0.299-0.037-0.476c-0.05-0.057-0.097-0.113-0.144-0.173c-0.142,0.086-0.294,0.081-0.385-0.035
		c-0.089-0.113-0.09-0.302-0.016-0.475c-0.046-0.061-0.091-0.121-0.136-0.182c-0.145,0.077-0.297,0.061-0.383-0.06
		c-0.083-0.121-0.077-0.309,0.003-0.478c-0.044-0.062-0.084-0.127-0.125-0.189c-0.149,0.067-0.3,0.043-0.38-0.087
		c-0.079-0.124-0.064-0.312,0.023-0.474c-0.04-0.067-0.079-0.133-0.117-0.199c-0.151,0.058-0.303,0.021-0.374-0.109
		c-0.074-0.131-0.053-0.318,0.042-0.474c-0.036-0.069-0.075-0.138-0.112-0.205c-0.15,0.047-0.298-0.001-0.365-0.136
		s-0.038-0.319,0.062-0.471c-0.033-0.07-0.067-0.141-0.102-0.212c-0.154,0.035-0.299-0.02-0.359-0.158
		c-0.062-0.141-0.024-0.32,0.082-0.465c-0.032-0.073-0.064-0.147-0.095-0.222c-0.154,0.026-0.294-0.039-0.35-0.182
		c-0.057-0.143-0.012-0.32,0.1-0.456c-0.028-0.077-0.056-0.154-0.083-0.229c-0.155,0.016-0.293-0.059-0.343-0.205
		c-0.05-0.146,0.002-0.321,0.118-0.451c-0.025-0.077-0.049-0.154-0.072-0.234c-0.156,0.007-0.289-0.076-0.333-0.225
		c-0.044-0.15,0.017-0.322,0.139-0.443c-0.022-0.08-0.043-0.16-0.064-0.239c-0.155-0.003-0.284-0.095-0.323-0.247
		c-0.035-0.152,0.031-0.32,0.157-0.434c-0.017-0.081-0.036-0.162-0.054-0.243c-0.154-0.014-0.277-0.114-0.31-0.268
		c-0.03-0.156,0.044-0.321,0.175-0.425c-0.015-0.083-0.03-0.162-0.044-0.246c-0.153-0.023-0.275-0.132-0.299-0.287
		c-0.024-0.156,0.058-0.316,0.193-0.415c-0.011-0.081-0.022-0.162-0.033-0.246c-0.152-0.032-0.27-0.149-0.286-0.309
		c-0.019-0.157,0.07-0.313,0.211-0.401c-0.007-0.084-0.014-0.164-0.021-0.247c-0.152-0.042-0.264-0.168-0.273-0.327
		c-0.012-0.158,0.084-0.309,0.228-0.389c-0.005-0.081-0.007-0.164-0.012-0.247c-0.149-0.053-0.258-0.184-0.261-0.344
		c-0.004-0.162,0.097-0.305,0.245-0.374c0-0.083,0-0.165,0-0.248c-0.148-0.062-0.25-0.201-0.247-0.361
		c0.003-0.163,0.109-0.3,0.26-0.358c0.004-0.083,0.008-0.166,0.012-0.248c-0.147-0.071-0.242-0.218-0.232-0.378
		c0.011-0.16,0.122-0.29,0.275-0.341c0.006-0.082,0.014-0.165,0.02-0.248c-0.141-0.08-0.23-0.231-0.214-0.392
		c0.017-0.159,0.135-0.28,0.286-0.322c0.012-0.083,0.022-0.165,0.033-0.247c-0.138-0.089-0.22-0.246-0.197-0.403
		c0.024-0.158,0.146-0.273,0.299-0.304c0.013-0.082,0.027-0.163,0.043-0.245c-0.134-0.1-0.208-0.262-0.179-0.419
		c0.03-0.154,0.156-0.261,0.312-0.284c0.016-0.08,0.035-0.162,0.052-0.244c-0.128-0.106-0.194-0.272-0.158-0.427
		c0.035-0.153,0.166-0.252,0.322-0.262c0.02-0.082,0.041-0.163,0.062-0.241c-0.122-0.117-0.182-0.287-0.14-0.438
		c0.043-0.151,0.176-0.24,0.331-0.242c0.024-0.08,0.048-0.16,0.072-0.239c-0.116-0.122-0.17-0.296-0.12-0.444
		c0.048-0.149,0.188-0.23,0.343-0.222c0.025-0.076,0.053-0.156,0.079-0.232c-0.111-0.131-0.154-0.309-0.102-0.452
		c0.057-0.146,0.197-0.22,0.352-0.199c0.03-0.076,0.062-0.151,0.091-0.229c-0.105-0.136-0.144-0.316-0.081-0.458
		c0.06-0.143,0.204-0.204,0.358-0.177c0.032-0.073,0.066-0.146,0.1-0.219c-0.1-0.146-0.13-0.328-0.062-0.466
		s0.214-0.193,0.365-0.153c0.035-0.07,0.074-0.142,0.11-0.213c-0.095-0.151-0.118-0.337-0.044-0.471
		c0.072-0.133,0.222-0.177,0.373-0.128c0.038-0.068,0.078-0.137,0.117-0.205c-0.087-0.158-0.104-0.345-0.025-0.474
		c0.08-0.13,0.23-0.164,0.378-0.104c0.042-0.065,0.085-0.131,0.127-0.195c-0.082-0.165-0.089-0.354-0.005-0.478
		c0.084-0.125,0.236-0.149,0.383-0.08c0.045-0.062,0.087-0.125,0.133-0.188c-0.076-0.17-0.074-0.357,0.017-0.476
		c0.088-0.119,0.241-0.134,0.383-0.055c0.048-0.061,0.095-0.12,0.142-0.18c-0.066-0.175-0.059-0.363,0.035-0.476
		c0.095-0.113,0.248-0.119,0.386-0.03c0.048-0.058,0.101-0.114,0.149-0.169c-0.059-0.179-0.044-0.367,0.055-0.475
		c0.1-0.105,0.251-0.102,0.386-0.005c0.053-0.054,0.104-0.106,0.156-0.159c-0.054-0.183-0.028-0.369,0.075-0.471
		c0.104-0.1,0.254-0.086,0.386,0.021c0.054-0.052,0.106-0.101,0.162-0.15c-0.045-0.185-0.012-0.37,0.095-0.464
		c0.107-0.095,0.257-0.069,0.383,0.045c0.056-0.047,0.111-0.096,0.168-0.142c-0.035-0.188,0.005-0.369,0.115-0.456
		c0.038-0.03,0.083-0.027,0.127-0.03l-0.667-2.336c-0.122,0.008-0.199,0.01-0.199,0.01s-0.057-0.215-0.141-0.562l-11.165,18.398
		c0.003,0.008,0.006,0.015,0.01,0.022l0.074-0.06c0.024-0.021,0.054-0.011,0.066,0.021l0.059,0.145
		c0.012,0.03,0.003,0.07-0.021,0.089l-0.074,0.062c0.01,0.024,0.02,0.053,0.029,0.079l0.078-0.05
		c0.024-0.017,0.054-0.005,0.062,0.027l0.05,0.152c0.01,0.031-0.002,0.071-0.026,0.088l-0.078,0.05
		c0.008,0.03,0.016,0.058,0.023,0.086l0.081-0.043c0.026-0.013,0.054,0.003,0.061,0.037l0.038,0.158
		c0.008,0.033-0.006,0.071-0.031,0.085l-0.08,0.041c0.006,0.03,0.013,0.06,0.018,0.089l0.082-0.032
		c0.026-0.011,0.052,0.008,0.059,0.043l0.027,0.163c0.006,0.034-0.011,0.071-0.036,0.081l-0.083,0.033
		c0.004,0.029,0.009,0.06,0.013,0.09l0.084-0.022c0.026-0.008,0.05,0.015,0.053,0.049l0.018,0.168
		c0.004,0.035-0.016,0.071-0.042,0.077l-0.084,0.023c0.002,0.03,0.005,0.062,0.007,0.092l0.083-0.013
		c0.027-0.005,0.051,0.02,0.051,0.056l0.007,0.17c0,0.035-0.02,0.067-0.048,0.072l-0.083,0.014c-0.001,0.031,0,0.062,0,0.094
		l0.084-0.005c0.025,0,0.047,0.028,0.047,0.064l-0.005,0.169c-0.003,0.036-0.025,0.067-0.053,0.069l-0.084,0.002
		c-0.002,0.031-0.004,0.063-0.006,0.094l0.083,0.005c0.027,0.004,0.047,0.034,0.043,0.069l-0.018,0.171
		c-0.003,0.034-0.026,0.063-0.054,0.062l-0.084-0.005c-0.003,0.029-0.009,0.061-0.013,0.092l0.083,0.017
		c0.026,0.005,0.042,0.037,0.037,0.073l-0.027,0.169c-0.007,0.035-0.032,0.062-0.059,0.057l-0.083-0.018
		c-0.006,0.031-0.011,0.061-0.017,0.091l0.08,0.027c0.025,0.008,0.039,0.042,0.031,0.078l-0.038,0.165
		c-0.008,0.036-0.035,0.058-0.061,0.05l-0.081-0.025c-0.008,0.028-0.016,0.06-0.023,0.09l0.078,0.036
		c0.024,0.01,0.036,0.047,0.026,0.08l-0.048,0.163c-0.011,0.035-0.041,0.053-0.064,0.041l-0.077-0.034
		c-0.01,0.028-0.021,0.058-0.03,0.087l0.074,0.045c0.024,0.014,0.034,0.052,0.021,0.085l-0.061,0.156
		c-0.011,0.035-0.04,0.05-0.064,0.035l-0.073-0.044c-0.012,0.028-0.024,0.056-0.036,0.083l0.071,0.055
		c0.022,0.017,0.029,0.055,0.015,0.088l-0.068,0.15c-0.015,0.032-0.044,0.044-0.066,0.027l-0.071-0.054
		c-0.014,0.026-0.026,0.054-0.04,0.081l0.066,0.061c0.021,0.021,0.025,0.06,0.008,0.091l-0.076,0.143
		c-0.016,0.029-0.048,0.038-0.068,0.019l-0.066-0.061c-0.015,0.026-0.029,0.051-0.045,0.075l0.062,0.07
		c0.019,0.021,0.021,0.062,0.003,0.092l-0.087,0.135c-0.018,0.027-0.049,0.032-0.068,0.01l-0.062-0.069
		c-0.016,0.024-0.032,0.047-0.049,0.07l0.057,0.078c0.018,0.023,0.018,0.064-0.003,0.092l-0.094,0.124
		c-0.02,0.026-0.051,0.029-0.068,0.005l-0.058-0.077c-0.018,0.021-0.035,0.042-0.053,0.063l0.051,0.084
		c0.017,0.027,0.013,0.069-0.008,0.093l-0.102,0.115c-0.021,0.022-0.052,0.021-0.068-0.007l-0.053-0.082
		c-0.018,0.019-0.036,0.038-0.056,0.058l0.044,0.091c0.016,0.029,0.009,0.069-0.014,0.092l-0.107,0.103
		c-0.022,0.021-0.053,0.016-0.066-0.014l-0.046-0.091c-0.02,0.019-0.04,0.035-0.06,0.054l0.039,0.097
		c0.013,0.029,0.003,0.07-0.021,0.089l-0.113,0.091c-0.022,0.019-0.053,0.01-0.064-0.021l-0.04-0.096
		c-0.021,0.015-0.042,0.031-0.062,0.046l0.033,0.102c0.01,0.031-0.003,0.07-0.027,0.087l-0.117,0.078
		c-0.024,0.016-0.054,0.002-0.064-0.029l-0.032-0.103c-0.021,0.014-0.043,0.028-0.065,0.04l0.026,0.104
		c0.008,0.035-0.007,0.072-0.031,0.086l-0.121,0.062c-0.027,0.014-0.055-0.003-0.062-0.035l-0.026-0.104
		c-0.021,0.011-0.045,0.019-0.066,0.03l0.018,0.108c0.006,0.035-0.01,0.07-0.037,0.082l-0.056,0.022
		c0.092,0.782,0.175,1.489,0.23,1.966l0.75,0.145c0.092,0.018,0.149,0.133,0.129,0.258l-0.004,0.026
		c-0.02,0.124-0.111,0.212-0.203,0.194l-0.087,0.532c0.092,0.018,0.149,0.134,0.129,0.259l-0.004,0.026
		c-0.02,0.125-0.111,0.212-0.204,0.194l-1.938-0.373c-0.092-0.019-0.15-0.133-0.13-0.259l0.004-0.027
		c0.02-0.119,0.105-0.204,0.195-0.193l0.087-0.536c-0.087-0.024-0.142-0.136-0.122-0.256l0.005-0.025
		c0.021-0.125,0.112-0.212,0.203-0.193l0.643,0.124c-0.058-0.465-0.133-1.066-0.213-1.729c-0.008,0.009-0.008,0.026-0.018,0.028
		l-0.128,0.021c-0.026,0.004-0.05-0.021-0.05-0.058l-0.005-0.113c-0.022,0.004-0.045,0.007-0.069,0.009l-0.003,0.114
		c-0.002,0.035-0.025,0.064-0.052,0.064l-0.126,0.007c-0.027,0.002-0.049-0.026-0.047-0.062l0.003-0.113
		c-0.023,0-0.046-0.002-0.069-0.002l-0.011,0.114c-0.004,0.036-0.028,0.063-0.055,0.062l-0.125-0.01
		c-0.027-0.001-0.047-0.032-0.044-0.067l0.012-0.114c-0.022-0.002-0.045-0.007-0.067-0.009l-0.019,0.112
		c-0.006,0.035-0.033,0.062-0.059,0.056l-0.124-0.024c-0.025-0.005-0.043-0.038-0.037-0.074l0.019-0.112
		c-0.022-0.006-0.045-0.01-0.067-0.017l-0.025,0.111c-0.008,0.035-0.035,0.057-0.062,0.049l-0.121-0.038
		c-0.025-0.008-0.04-0.044-0.031-0.08l0.025-0.11c-0.021-0.008-0.044-0.016-0.066-0.024l-0.032,0.107
		c-0.01,0.035-0.037,0.053-0.062,0.043l-0.119-0.054c-0.024-0.012-0.037-0.047-0.026-0.081l0.033-0.108
		c-0.022-0.01-0.043-0.022-0.063-0.034l-0.04,0.104c-0.012,0.034-0.041,0.05-0.064,0.035l-0.114-0.066
		c-0.023-0.015-0.031-0.054-0.019-0.086l0.037-0.104c-0.02-0.013-0.04-0.027-0.06-0.041l-0.045,0.1
		c-0.015,0.032-0.045,0.045-0.066,0.027l-0.108-0.08c-0.022-0.017-0.029-0.058-0.015-0.088l0.045-0.101
		c-0.02-0.016-0.038-0.03-0.057-0.047l-0.051,0.095c-0.018,0.029-0.047,0.04-0.068,0.019l-0.102-0.093
		c-0.017-0.017-0.015-0.048-0.008-0.074c-0.037,0.017-0.078,0.023-0.122,0.014c-0.021,0.053-0.042,0.105-0.062,0.158
		c0.062,0.104,0.08,0.234,0.037,0.333c-0.041,0.099-0.134,0.136-0.228,0.106c-0.023,0.052-0.047,0.103-0.069,0.152
		c0.057,0.109,0.071,0.243,0.026,0.338c-0.047,0.096-0.139,0.126-0.233,0.089c-0.024,0.049-0.05,0.098-0.074,0.146
		c0.055,0.114,0.063,0.248,0.014,0.339c-0.049,0.093-0.143,0.116-0.236,0.073c-0.025,0.047-0.052,0.095-0.079,0.14
		c0.05,0.119,0.055,0.254,0.002,0.342s-0.148,0.104-0.239,0.054c-0.028,0.045-0.055,0.09-0.083,0.135
		c0.046,0.121,0.045,0.257-0.012,0.341c-0.056,0.084-0.151,0.095-0.239,0.036c-0.03,0.043-0.06,0.085-0.09,0.129
		c0.042,0.124,0.035,0.259-0.023,0.339c-0.059,0.082-0.155,0.084-0.242,0.02c-0.03,0.041-0.062,0.08-0.092,0.12
		c0.037,0.129,0.025,0.264-0.036,0.34c-0.062,0.077-0.157,0.071-0.241,0c-0.032,0.039-0.064,0.076-0.098,0.112
		c0.012,0.05,0.011,0.098,0.009,0.145c5.289,6.173,13.137,10.091,21.903,10.091c15.926,0,28.837-12.912,28.837-28.836
		C396.619,16.457,383.708,3.545,367.782,3.545z"/>
	<path d="M372.439,43.485l-0.039,0.054l0.098-0.017C372.479,43.511,372.459,43.498,372.439,43.485z"/>
	<polygon points="372.012,43.755 371.971,44.114 372.248,44.004 372.243,43.754 372.219,43.787 	"/>
	<polygon points="371.304,49.877 372.335,47.988 372.306,46.66 371.564,47.617 	"/>
	<polygon points="374.468,44.085 374.328,44.046 374.061,44.392 374.201,44.572 	"/>
	<polygon points="375.184,46.026 374.214,44.783 373.996,45.187 375.144,47.286 	"/>
	<polygon points="371.903,43.762 370.095,44.083 369.475,45.114 371.859,44.159 	"/>
	<polygon points="372.301,46.475 372.252,44.142 371.955,44.261 371.591,47.395 	"/>
	<polygon points="374.139,44.686 373.985,44.488 373.768,44.771 373.931,45.068 	"/>
	<path fill="#EBEAEA" d="M341.021,15.125c0.011-0.014,0.024-0.021,0.035-0.034c0.001-0.001,0.001-0.002,0.002-0.003L341.021,15.125z
		"/>
</g>
<g>
	<path fill="#FF8F12" d="M678.918,53.147c-0.973,0.099-1.988,0.162-3.067,0.164c-0.438,0.001-0.854-0.018-1.274-0.033l-3.68,5.702
		c2.181,0.527,4.455,0.813,6.798,0.813c1.846,0,3.648-0.181,5.397-0.512L678.918,53.147z"/>
	<path fill="#FF8F12" d="M677.694,2.119c-15.927,0-28.837,12.912-28.837,28.839c0,11.124,6.305,20.771,15.532,25.581l2.561-4.72
		c-11.229-4.297-11.688-16.433-11.688-16.433l41.929,0.214v0.129c0,0-0.932,11.467-11.822,15.878l3.748,5.83
		c10.243-4.425,17.414-14.614,17.414-26.479C706.531,15.031,693.62,2.119,677.694,2.119z M667.561,23.651
		c-0.728,1.791,0.769,2.28,0.623,5.117c-0.146,2.835-4.214,4.532-4.214,4.532c1.39-2.212,1.763-3.751,1.377-4.903
		c-0.384-1.153-0.253-3.368-0.253-3.368c0.367-3.048,4.773-4.69,4.773-4.69C668.422,20.961,667.561,23.651,667.561,23.651z
		 M678.098,26.601c-0.216,4.191-6.23,6.699-6.23,6.699c2.059-3.272,2.606-5.545,2.038-7.249s-0.372-4.976-0.372-4.976
		c0.543-4.507,7.054-6.937,7.054-6.937l-3.41,4.898C676.101,21.682,678.313,22.407,678.098,26.601z M685.937,23.071
		c-0.729,1.792,0.77,2.28,0.622,5.118c-0.146,2.834-4.214,4.531-4.214,4.531c1.392-2.211,1.762-3.75,1.379-4.903
		c-0.384-1.153-0.251-3.368-0.251-3.368c0.365-3.047,4.771-4.69,4.771-4.69C686.799,20.38,685.937,23.071,685.937,23.071z"/>
</g>
</svg>
